id,Name,Address,Website,Number,Bien en vente,Bien en location total,Appartement,Parking,Bureaux,Zone d+//0A4v/9AID//QCZ-expertise,Zone d+//0A4v/9AID//QCZ-expertise 2,Zone d+//0A4v/9AID//QCZ-expertise 3,Zone d+//0A4v/9AID//QCZ-expertise 4,Zone d+//0A4v/9AID//QCZ-expertise 5,Zone d+//0A4v/9AID//QCZ-expertise 6,Team,Team ,Team ,Team ,Team ,Team ,Team ,Team 
"1","AVL immobilier Laumière"," 118 RUE DE MEAUX 75019 Paris","http://www.avl-immobilier.com/","0142006200","8","13","10","2","2","Paris 10ème 75010 (4)","Paris 11ème 75011 (4)","Paris 13ème 75013 (8)","Paris 18ème 75018 (7)","Paris 19ème 75019 (9)","Paris 20ème 75020 (5)","B C
Benjamin CAUDRON
Responsable d'agence","R F
Rodolphe FINCK
Conseiller Immobilier","A B
Amazigh BELARBI
Conseiller Immobilier","R T
Régis TEFFO
Conseiller Immobilier","","","",""
"1","GARANCE IMMOBILIER"," 226 avenue Daumesnil 75012 Paris","http://www.garance-immo.com/","0153447788","5","2","2","0","0","Paris 11ème 75011 (3)","Paris 12ème 75012 (9)","Charenton-le-Pont 94220 (10)","Saint-Mandé 94160 (9)","Vincennes 94300 (4)","","J M
Julien MEURIOT
Conseiller Immobilier","D M
David MEZI
Conseiller Immobilier","A S
Amaury SCHUSTER
Conseiller Immobilier","S S
Sébastien SOUBIELLE
Conseiller Immobilier","R D
Roland DELESENNE
Conseiller Immobilier","L M
Léa MARINELLO
Conseiller Immobilier","",""
"1","IMMO'LAND"," 259 av Daumesnil 75012 Paris","http://media12.ac3-distribution.com/segments/immo/catalog/images/manufacturers_bareme/155551.pdf","0156950707","11","3","3","0","0","Paris 11ème 75011 (5)","Paris 12ème 75012 (9)","Paris 20ème 75020 (7)","Charenton-le-Pont 94220 (10)","Saint-Mandé 94160 (9)","Vincennes 94300 (4)","G H
Ghislaine HERNANDEZ
Négociatrice Immobilier","G A
Gary AMOYAL
Négociateur Immobilier","Joelle AMOYAL
Directrice","","","","",""
"1","AVL immobilier Laumière"," 118 RUE DE MEAUX 75019 Paris","http://www.avl-immobilier.com/","0142006200","8","14","10","2","2","Paris 10ème 75010 (4)","Paris 11ème 75011 (4)","Paris 13ème 75013 (8)","Paris 18ème 75018 (7)","Paris 19ème 75019 (9)","Paris 20ème 75020 (5)","B C
Benjamin CAUDRON
Responsable d'agence","R F
Rodolphe FINCK
Conseiller Immobilier","A B
Amazigh BELARBI
Conseiller Immobilier","R T
Régis TEFFO
Conseiller Immobilier","","","",""
"1","GARANCE IMMOBILIER"," 226 avenue Daumesnil 75012 Paris","http://www.garance-immo.com/","0153447788","5","2","2","0","0","Paris 11ème 75011 (3)","Paris 12ème 75012 (9)","Charenton-le-Pont 94220 (10)","Saint-Mandé 94160 (9)","Vincennes 94300 (4)","","S S
Sébastien SOUBIELLE
Conseiller Immobilier","R D
Roland DELESENNE
Conseiller Immobilier","L M
Léa MARINELLO
Conseiller Immobilier","J M
Julien MEURIOT
Conseiller Immobilier","D M
David MEZI
Conseiller Immobilier","A S
Amaury SCHUSTER
Conseiller Immobilier","",""
"1","IMMO'LAND"," 259 av Daumesnil 75012 Paris","http://media12.ac3-distribution.com/segments/immo/catalog/images/manufacturers_bareme/155551.pdf","0156950707","11","3","3","0","0","Paris 11ème 75011 (5)","Paris 12ème 75012 (9)","Paris 20ème 75020 (7)","Charenton-le-Pont 94220 (10)","Saint-Mandé 94160 (9)","Vincennes 94300 (4)","G H
Ghislaine HERNANDEZ
Négociatrice Immobilier","G A
Gary AMOYAL
Négociateur Immobilier","Joelle AMOYAL
Directrice","","","","",""
"1","AVL immobilier Laumière"," 118 RUE DE MEAUX 75019 Paris","http://www.avl-immobilier.com/","0142006200","8","14","10","2","2","Paris 10ème 75010 (4)","Paris 11ème 75011 (4)","Paris 13ème 75013 (8)","Paris 18ème 75018 (7)","Paris 19ème 75019 (9)","Paris 20ème 75020 (5)","B C
Benjamin CAUDRON
Responsable d'agence","R F
Rodolphe FINCK
Conseiller Immobilier","A B
Amazigh BELARBI
Conseiller Immobilier","R T
Régis TEFFO
Conseiller Immobilier","","","",""
"1","AVL immobilier Laumière"," 118 RUE DE MEAUX 75019 Paris","http://www.avl-immobilier.com/","0142006200","8","14","10","2","2","Paris 10ème 75010 (4)","Paris 11ème 75011 (4)","Paris 13ème 75013 (8)","Paris 18ème 75018 (7)","Paris 19ème 75019 (9)","Paris 20ème 75020 (5)","B C
Benjamin CAUDRON
Responsable d'agence","R F
Rodolphe FINCK
Conseiller Immobilier","A B
Amazigh BELARBI
Conseiller Immobilier","R T
Régis TEFFO
Conseiller Immobilier","","","",""
"1","GARANCE IMMOBILIER"," 226 avenue Daumesnil 75012 Paris","http://www.garance-immo.com/","0153447788","5","2","2","0","0","Paris 11ème 75011 (3)","Paris 12ème 75012 (9)","Charenton-le-Pont 94220 (10)","Saint-Mandé 94160 (9)","Vincennes 94300 (4)","","J M
Julien MEURIOT
Conseiller Immobilier","D M
David MEZI
Conseiller Immobilier","A S
Amaury SCHUSTER
Conseiller Immobilier","S S
Sébastien SOUBIELLE
Conseiller Immobilier","R D
Roland DELESENNE
Conseiller Immobilier","L M
Léa MARINELLO
Conseiller Immobilier","",""
"1","IMMO'LAND"," 259 av Daumesnil 75012 Paris","http://media12.ac3-distribution.com/segments/immo/catalog/images/manufacturers_bareme/155551.pdf","0156950707","11","3","3","0","0","Paris 11ème 75011 (5)","Paris 12ème 75012 (9)","Paris 20ème 75020 (7)","Charenton-le-Pont 94220 (10)","Saint-Mandé 94160 (9)","Vincennes 94300 (4)","Joelle AMOYAL
Directrice","G H
Ghislaine HERNANDEZ
Négociatrice Immobilier","G A
Gary AMOYAL
Négociateur Immobilier","","","","",""
"1","MARC FOUJOLS GROUPE IMMOBILIER"," 15 avenue Paul Doumer 75116 Paris","http://www.marcfoujols.com/nos-honoraires/","0153700000","44","","0","0","0","Paris 16ème 75016 (8)","","","","","","Jean Michel FOUJOLS
Responsable commercial","Océane FRANCHINI
Assistante de direction","Paul LEMOINE
Consultant","Zoya SECORD
Consultante","Sandra SCOLLNICK
Consultante","Cristina PEREIRA
Consultante","Lila GIL
Consultante","Eva Subrini
Consultante"
"1","AVL immobilier Laumière"," 118 RUE DE MEAUX 75019 Paris","http://www.avl-immobilier.com/","0142006200","8","14","10","2","2","Paris 10ème 75010 (4)","Paris 11ème 75011 (4)","Paris 13ème 75013 (8)","Paris 18ème 75018 (7)","Paris 19ème 75019 (9)","Paris 20ème 75020 (5)","B C
Benjamin CAUDRON
Responsable d'agence","R F
Rodolphe FINCK
Conseiller Immobilier","A B
Amazigh BELARBI
Conseiller Immobilier","R T
Régis TEFFO
Conseiller Immobilier","","","",""
"1","GARANCE IMMOBILIER"," 226 avenue Daumesnil 75012 Paris","http://www.garance-immo.com/","0153447788","5","2","2","0","0","Paris 11ème 75011 (3)","Paris 12ème 75012 (9)","Charenton-le-Pont 94220 (10)","Saint-Mandé 94160 (9)","Vincennes 94300 (4)","","S S
Sébastien SOUBIELLE
Conseiller Immobilier","R D
Roland DELESENNE
Conseiller Immobilier","L M
Léa MARINELLO
Conseiller Immobilier","J M
Julien MEURIOT
Conseiller Immobilier","D M
David MEZI
Conseiller Immobilier","A S
Amaury SCHUSTER
Conseiller Immobilier","",""
"1","IMMO'LAND"," 259 av Daumesnil 75012 Paris","http://media12.ac3-distribution.com/segments/immo/catalog/images/manufacturers_bareme/155551.pdf","0156950707","11","3","3","0","0","Paris 11ème 75011 (5)","Paris 12ème 75012 (9)","Paris 20ème 75020 (7)","Charenton-le-Pont 94220 (10)","Saint-Mandé 94160 (9)","Vincennes 94300 (4)","G H
Ghislaine HERNANDEZ
Négociatrice Immobilier","G A
Gary AMOYAL
Négociateur Immobilier","Joelle AMOYAL
Directrice","","","","",""
"1","AVL immobilier Laumière"," 118 RUE DE MEAUX 75019 Paris","http://www.avl-immobilier.com/","0142006200","8","14","10","2","2","Paris 10ème 75010 (4)","Paris 11ème 75011 (4)","Paris 13ème 75013 (8)","Paris 18ème 75018 (7)","Paris 19ème 75019 (9)","Paris 20ème 75020 (5)","B C
Benjamin CAUDRON
Responsable d'agence","R F
Rodolphe FINCK
Conseiller Immobilier","A B
Amazigh BELARBI
Conseiller Immobilier","R T
Régis TEFFO
Conseiller Immobilier","","","",""
"1","GARANCE IMMOBILIER"," 226 avenue Daumesnil 75012 Paris","http://www.garance-immo.com/","0153447788","5","2","2","0","0","Paris 11ème 75011 (3)","Paris 12ème 75012 (9)","Charenton-le-Pont 94220 (10)","Saint-Mandé 94160 (9)","Vincennes 94300 (4)","","S S
Sébastien SOUBIELLE
Conseiller Immobilier","R D
Roland DELESENNE
Conseiller Immobilier","L M
Léa MARINELLO
Conseiller Immobilier","J M
Julien MEURIOT
Conseiller Immobilier","D M
David MEZI
Conseiller Immobilier","A S
Amaury SCHUSTER
Conseiller Immobilier","",""
"1","IMMO'LAND"," 259 av Daumesnil 75012 Paris","http://media12.ac3-distribution.com/segments/immo/catalog/images/manufacturers_bareme/155551.pdf","0156950707","11","3","3","0","0","Paris 11ème 75011 (5)","Paris 12ème 75012 (9)","Paris 20ème 75020 (7)","Charenton-le-Pont 94220 (10)","Saint-Mandé 94160 (9)","Vincennes 94300 (4)","G H
Ghislaine HERNANDEZ
Négociatrice Immobilier","G A
Gary AMOYAL
Négociateur Immobilier","Joelle AMOYAL
Directrice","","","","",""
"1","MARC FOUJOLS GROUPE IMMOBILIER"," 15 avenue Paul Doumer 75116 Paris","http://www.marcfoujols.com/nos-honoraires/","0153700000","44","","0","0","0","Paris 16ème 75016 (8)","","","","","","Jean Michel FOUJOLS
Responsable commercial","Océane FRANCHINI
Assistante de direction","Paul LEMOINE
Consultant","Zoya SECORD
Consultante","Sandra SCOLLNICK
Consultante","Cristina PEREIRA
Consultante","Lila GIL
Consultante","Eva Subrini
Consultante"
"1","AVL immobilier Laumière"," 118 RUE DE MEAUX 75019 Paris","http://www.avl-immobilier.com/","0142006200","8","14","10","2","2","Paris 10ème 75010 (4)","Paris 11ème 75011 (4)","Paris 13ème 75013 (8)","Paris 18ème 75018 (7)","Paris 19ème 75019 (9)","Paris 20ème 75020 (5)","B C
Benjamin CAUDRON
Responsable d'agence","R F
Rodolphe FINCK
Conseiller Immobilier","A B
Amazigh BELARBI
Conseiller Immobilier","R T
Régis TEFFO
Conseiller Immobilier","","","",""
"1","GARANCE IMMOBILIER"," 226 avenue Daumesnil 75012 Paris","http://www.garance-immo.com/","0153447788","5","2","2","0","0","Paris 11ème 75011 (3)","Paris 12ème 75012 (9)","Charenton-le-Pont 94220 (10)","Saint-Mandé 94160 (9)","Vincennes 94300 (4)","","S S
Sébastien SOUBIELLE
Conseiller Immobilier","R D
Roland DELESENNE
Conseiller Immobilier","L M
Léa MARINELLO
Conseiller Immobilier","J M
Julien MEURIOT
Conseiller Immobilier","D M
David MEZI
Conseiller Immobilier","A S
Amaury SCHUSTER
Conseiller Immobilier","",""
"1","IMMO'LAND"," 259 av Daumesnil 75012 Paris","http://media12.ac3-distribution.com/segments/immo/catalog/images/manufacturers_bareme/155551.pdf","0156950707","11","3","3","0","0","Paris 11ème 75011 (5)","Paris 12ème 75012 (9)","Paris 20ème 75020 (7)","Charenton-le-Pont 94220 (10)","Saint-Mandé 94160 (9)","Vincennes 94300 (4)","Joelle AMOYAL
Directrice","G H
Ghislaine HERNANDEZ
Négociatrice Immobilier","G A
Gary AMOYAL
Négociateur Immobilier","","","","",""
"1","MARC FOUJOLS GROUPE IMMOBILIER"," 15 avenue Paul Doumer 75116 Paris","http://www.marcfoujols.com/nos-honoraires/","0153700000","44","","0","0","0","Paris 16ème 75016 (8)","","","","","","Jean Michel FOUJOLS
Responsable commercial","Océane FRANCHINI
Assistante de direction","Paul LEMOINE
Consultant","Zoya SECORD
Consultante","Sandra SCOLLNICK
Consultante","Cristina PEREIRA
Consultante","Lila GIL
Consultante","Eva Subrini
Consultante"
"1","SAINT Ferdinand Courcelles"," 107 rue de Courcelles 75017 Paris","http://www.agencessaintferdinand.com/","0143801017","5","6","5","1","0","","","","","","","J C
Jean-Yves CHICHEPORTICHE
Directeur","C E
Cathy ESABAL
Négociatrice Transaction","G B
Guy BISMUTH
Négociateur Transaction","C D
Claire DENOUAL
Négociatrice Transaction","C R
Cindy ROULET
Négociatrice Transaction","M E
Margaux ELBAZ
Négociatrice Transaction","S B
Sylvie BENICHOU
Responsable Gestion Locative","J E
Jennifer EDERY
Négociatrice Location"
"1","AVL immobilier Laumière"," 118 RUE DE MEAUX 75019 Paris","http://www.avl-immobilier.com/","0142006200","8","14","10","2","2","Paris 10ème 75010 (4)","Paris 11ème 75011 (4)","Paris 13ème 75013 (8)","Paris 18ème 75018 (7)","Paris 19ème 75019 (9)","Paris 20ème 75020 (5)","B C
Benjamin CAUDRON
Responsable d'agence","R F
Rodolphe FINCK
Conseiller Immobilier","A B
Amazigh BELARBI
Conseiller Immobilier","R T
Régis TEFFO
Conseiller Immobilier","","","",""
"1","GARANCE IMMOBILIER"," 226 avenue Daumesnil 75012 Paris","http://www.garance-immo.com/","0153447788","5","2","2","0","0","Paris 11ème 75011 (3)","Paris 12ème 75012 (9)","Charenton-le-Pont 94220 (10)","Saint-Mandé 94160 (9)","Vincennes 94300 (4)","","S S
Sébastien SOUBIELLE
Conseiller Immobilier","R D
Roland DELESENNE
Conseiller Immobilier","L M
Léa MARINELLO
Conseiller Immobilier","J M
Julien MEURIOT
Conseiller Immobilier","D M
David MEZI
Conseiller Immobilier","A S
Amaury SCHUSTER
Conseiller Immobilier","",""
"1","IMMO'LAND"," 259 av Daumesnil 75012 Paris","http://media12.ac3-distribution.com/segments/immo/catalog/images/manufacturers_bareme/155551.pdf","0156950707","11","3","3","0","0","Paris 11ème 75011 (5)","Paris 12ème 75012 (9)","Paris 20ème 75020 (7)","Charenton-le-Pont 94220 (10)","Saint-Mandé 94160 (9)","Vincennes 94300 (4)","Joelle AMOYAL
Directrice","G H
Ghislaine HERNANDEZ
Négociatrice Immobilier","G A
Gary AMOYAL
Négociateur Immobilier","","","","",""
"1","AVL immobilier Laumière"," 118 RUE DE MEAUX 75019 Paris","http://www.avl-immobilier.com/","0142006200","8","14","10","2","2","Paris 10ème 75010 (4)","Paris 11ème 75011 (4)","Paris 13ème 75013 (8)","Paris 18ème 75018 (7)","Paris 19ème 75019 (9)","Paris 20ème 75020 (5)","B C
Benjamin CAUDRON
Responsable d'agence","R F
Rodolphe FINCK
Conseiller Immobilier","A B
Amazigh BELARBI
Conseiller Immobilier","R T
Régis TEFFO
Conseiller Immobilier","","","",""
"1","GARANCE IMMOBILIER"," 226 avenue Daumesnil 75012 Paris","http://www.garance-immo.com/","0153447788","5","2","2","0","0","Paris 11ème 75011 (3)","Paris 12ème 75012 (9)","Charenton-le-Pont 94220 (10)","Saint-Mandé 94160 (9)","Vincennes 94300 (4)","","J M
Julien MEURIOT
Conseiller Immobilier","D M
David MEZI
Conseiller Immobilier","A S
Amaury SCHUSTER
Conseiller Immobilier","S S
Sébastien SOUBIELLE
Conseiller Immobilier","R D
Roland DELESENNE
Conseiller Immobilier","L M
Léa MARINELLO
Conseiller Immobilier","",""
"1","IMMO'LAND"," 259 av Daumesnil 75012 Paris","http://media12.ac3-distribution.com/segments/immo/catalog/images/manufacturers_bareme/155551.pdf","0156950707","11","3","3","0","0","Paris 11ème 75011 (5)","Paris 12ème 75012 (9)","Paris 20ème 75020 (7)","Charenton-le-Pont 94220 (10)","Saint-Mandé 94160 (9)","Vincennes 94300 (4)","G H
Ghislaine HERNANDEZ
Négociatrice Immobilier","G A
Gary AMOYAL
Négociateur Immobilier","Joelle AMOYAL
Directrice","","","","",""
"1","MARC FOUJOLS GROUPE IMMOBILIER"," 15 avenue Paul Doumer 75116 Paris","http://www.marcfoujols.com/nos-honoraires/","0153700000","44","","0","0","0","Paris 16ème 75016 (8)","","","","","","Jean Michel FOUJOLS
Responsable commercial","Océane FRANCHINI
Assistante de direction","Paul LEMOINE
Consultant","Zoya SECORD
Consultante","Sandra SCOLLNICK
Consultante","Cristina PEREIRA
Consultante","Lila GIL
Consultante","Eva Subrini
Consultante"
"1","SAINT Ferdinand Courcelles"," 107 rue de Courcelles 75017 Paris","http://www.agencessaintferdinand.com/","0143801017","5","6","5","1","0","","","","","","","J C
Jean-Yves CHICHEPORTICHE
Directeur","C E
Cathy ESABAL
Négociatrice Transaction","G B
Guy BISMUTH
Négociateur Transaction","C D
Claire DENOUAL
Négociatrice Transaction","C R
Cindy ROULET
Négociatrice Transaction","M E
Margaux ELBAZ
Négociatrice Transaction","S B
Sylvie BENICHOU
Responsable Gestion Locative","J E
Jennifer EDERY
Négociatrice Location"
"1","LAFORÊT IMMOBILIER SARL BEAULIEU IMMOBILIER"," 49 rue Boulard 75014 Paris","http://www.laforet.com/paris14boulard","0153901515",,"","1","2","0","Paris 6ème 75006 (2)","Paris 14ème 75014 (6)","Malakoff 92240 (11)","Montrouge 92120 (17)","","","Gilbert Chouchana
Directeur","Emmanuelle Dal'Moro
Responsable","Sarah Bellanger
Responsable Location","C G
Camille George
Conseillère en Immobilier","R C
Rémy Chouchana
Responsable Gestion Locative","A D
Alexis Derkaloustian
Conseiller Immobilier","",""
"1","GROUPE STI"," 17 rue Delambre 75014 Paris","http://www.sti-immo.com/","0143354637","1","1","0","1","0","Paris 5ème 75005 (4)","Paris 6ème 75006 (6)","Paris 7ème 75007 (5)","Paris 13ème 75013 (8)","Paris 14ème 75014 (6)","Paris 15ème 75015 (11)","STI Montparnasse
Vente, Achat, Location","STI Daguerre
Vente, Achat, Location","STI Duvernet
Vente, Achat, Location","S P
STI Pernety
Vente, Achat, Location, Gestion","S A
STI Alésia
Vente, Achat","S S
STI Syndic
Vente, Achat","S S
STI Syndic
Syndic de Copropriété","T N
Thierry NOAL
Directeur"
"1","AVL immobilier Laumière"," 118 RUE DE MEAUX 75019 Paris","http://www.avl-immobilier.com/","0142006200","8","14","10","2","2","Paris 10ème 75010 (4)","Paris 11ème 75011 (4)","Paris 13ème 75013 (8)","Paris 18ème 75018 (7)","Paris 19ème 75019 (9)","Paris 20ème 75020 (5)","B C
Benjamin CAUDRON
Responsable d'agence","R F
Rodolphe FINCK
Conseiller Immobilier","A B
Amazigh BELARBI
Conseiller Immobilier","R T
Régis TEFFO
Conseiller Immobilier","","","",""
"1","GARANCE IMMOBILIER"," 226 avenue Daumesnil 75012 Paris","http://www.garance-immo.com/","0153447788","5","2","2","0","0","Paris 11ème 75011 (3)","Paris 12ème 75012 (9)","Charenton-le-Pont 94220 (10)","Saint-Mandé 94160 (9)","Vincennes 94300 (4)","","S S
Sébastien SOUBIELLE
Conseiller Immobilier","R D
Roland DELESENNE
Conseiller Immobilier","L M
Léa MARINELLO
Conseiller Immobilier","J M
Julien MEURIOT
Conseiller Immobilier","D M
David MEZI
Conseiller Immobilier","A S
Amaury SCHUSTER
Conseiller Immobilier","",""
"1","IMMO'LAND"," 259 av Daumesnil 75012 Paris","http://media12.ac3-distribution.com/segments/immo/catalog/images/manufacturers_bareme/155551.pdf","0156950707","11","3","3","0","0","Paris 11ème 75011 (5)","Paris 12ème 75012 (9)","Paris 20ème 75020 (7)","Charenton-le-Pont 94220 (10)","Saint-Mandé 94160 (9)","Vincennes 94300 (4)","G H
Ghislaine HERNANDEZ
Négociatrice Immobilier","G A
Gary AMOYAL
Négociateur Immobilier","Joelle AMOYAL
Directrice","","","","",""
"1","MARC FOUJOLS GROUPE IMMOBILIER"," 15 avenue Paul Doumer 75116 Paris","http://www.marcfoujols.com/nos-honoraires/","0153700000","44","","0","0","0","Paris 16ème 75016 (8)","","","","","","Eva Subrini
Consultante","Nathalie Millereau
Consultante","Lila GIL
Consultante","Cristina PEREIRA
Consultante","Sandra SCOLLNICK
Consultante","Jean Michel FOUJOLS
Responsable commercial","Océane FRANCHINI
Assistante de direction","Paul LEMOINE
Consultant"
"1","SAINT Ferdinand Courcelles"," 107 rue de Courcelles 75017 Paris","http://www.agencessaintferdinand.com/","0143801017","5","6","5","1","0","","","","","","","J C
Jean-Yves CHICHEPORTICHE
Directeur","C E
Cathy ESABAL
Négociatrice Transaction","G B
Guy BISMUTH
Négociateur Transaction","C D
Claire DENOUAL
Négociatrice Transaction","C R
Cindy ROULET
Négociatrice Transaction","M E
Margaux ELBAZ
Négociatrice Transaction","S B
Sylvie BENICHOU
Responsable Gestion Locative","J E
Jennifer EDERY
Négociatrice Location"
"1","LAFORÊT IMMOBILIER SARL BEAULIEU IMMOBILIER"," 49 rue Boulard 75014 Paris","http://www.laforet.com/paris14boulard","0153901515",,"","1","2","0","Paris 6ème 75006 (2)","Paris 14ème 75014 (6)","Malakoff 92240 (11)","Montrouge 92120 (17)","","","A D
Alexis Derkaloustian
Conseiller Immobilier","Gilbert Chouchana
Directeur","Emmanuelle Dal'Moro
Responsable","Sarah Bellanger
Responsable Location","C G
Camille George
Conseillère en Immobilier","R C
Rémy Chouchana
Responsable Gestion Locative","",""
"1","GROUPE STI"," 17 rue Delambre 75014 Paris","http://www.sti-immo.com/","0143354637","1","1","0","1","0","Paris 5ème 75005 (4)","Paris 6ème 75006 (6)","Paris 7ème 75007 (5)","Paris 13ème 75013 (8)","Paris 14ème 75014 (6)","Paris 15ème 75015 (11)","T N
Thierry NOAL
Directeur","J F
Jérôme FEDIDA
Négociateur immobilier","STI Daguerre
Vente, Achat, Location","STI Duvernet
Vente, Achat, Location","S P
STI Pernety
Vente, Achat, Location, Gestion","S A
STI Alésia
Vente, Achat","S S
STI Syndic
Vente, Achat","S S
STI Syndic
Syndic de Copropriété"
"1","AVL immobilier Laumière"," 118 RUE DE MEAUX 75019 Paris","http://www.avl-immobilier.com/","0142006200","8","14","10","2","2","Paris 10ème 75010 (4)","Paris 11ème 75011 (4)","Paris 13ème 75013 (8)","Paris 18ème 75018 (7)","Paris 19ème 75019 (9)","Paris 20ème 75020 (5)","B C
Benjamin CAUDRON
Responsable d'agence","R F
Rodolphe FINCK
Conseiller Immobilier","A B
Amazigh BELARBI
Conseiller Immobilier","R T
Régis TEFFO
Conseiller Immobilier","","","",""
"1","GARANCE IMMOBILIER"," 226 avenue Daumesnil 75012 Paris","http://www.garance-immo.com/","0153447788","5","2","2","0","0","Paris 11ème 75011 (3)","Paris 12ème 75012 (9)","Charenton-le-Pont 94220 (10)","Saint-Mandé 94160 (9)","Vincennes 94300 (4)","","J M
Julien MEURIOT
Conseiller Immobilier","D M
David MEZI
Conseiller Immobilier","A S
Amaury SCHUSTER
Conseiller Immobilier","S S
Sébastien SOUBIELLE
Conseiller Immobilier","R D
Roland DELESENNE
Conseiller Immobilier","L M
Léa MARINELLO
Conseiller Immobilier","",""
"1","IMMO'LAND"," 259 av Daumesnil 75012 Paris","http://media12.ac3-distribution.com/segments/immo/catalog/images/manufacturers_bareme/155551.pdf","0156950707","11","3","3","0","0","Paris 11ème 75011 (5)","Paris 12ème 75012 (9)","Paris 20ème 75020 (7)","Charenton-le-Pont 94220 (10)","Saint-Mandé 94160 (9)","Vincennes 94300 (4)","G H
Ghislaine HERNANDEZ
Négociatrice Immobilier","G A
Gary AMOYAL
Négociateur Immobilier","Joelle AMOYAL
Directrice","","","","",""
"1","MARC FOUJOLS GROUPE IMMOBILIER"," 15 avenue Paul Doumer 75116 Paris","http://www.marcfoujols.com/nos-honoraires/","0153700000","44","","0","0","0","Paris 16ème 75016 (8)","","","","","","Eva Subrini
Consultante","Nathalie Millereau
Consultante","Lila GIL
Consultante","Cristina PEREIRA
Consultante","Sandra SCOLLNICK
Consultante","Jean Michel FOUJOLS
Responsable commercial","Océane FRANCHINI
Assistante de direction","Paul LEMOINE
Consultant"
"1","SAINT Ferdinand Courcelles"," 107 rue de Courcelles 75017 Paris","http://www.agencessaintferdinand.com/","0143801017","5","6","5","1","0","","","","","","","J C
Jean-Yves CHICHEPORTICHE
Directeur","C E
Cathy ESABAL
Négociatrice Transaction","G B
Guy BISMUTH
Négociateur Transaction","C D
Claire DENOUAL
Négociatrice Transaction","C R
Cindy ROULET
Négociatrice Transaction","M E
Margaux ELBAZ
Négociatrice Transaction","S B
Sylvie BENICHOU
Responsable Gestion Locative","J E
Jennifer EDERY
Négociatrice Location"
"1","LAFORÊT IMMOBILIER SARL BEAULIEU IMMOBILIER"," 49 rue Boulard 75014 Paris","http://www.laforet.com/paris14boulard","0153901515",,"","1","2","0","Paris 6ème 75006 (2)","Paris 14ème 75014 (6)","Malakoff 92240 (11)","Montrouge 92120 (17)","","","A D
Alexis Derkaloustian
Conseiller Immobilier","Gilbert Chouchana
Directeur","Emmanuelle Dal'Moro
Responsable","Sarah Bellanger
Responsable Location","C G
Camille George
Conseillère en Immobilier","R C
Rémy Chouchana
Responsable Gestion Locative","",""
"1","GROUPE STI"," 17 rue Delambre 75014 Paris","http://www.sti-immo.com/","0143354637","1","1","0","1","0","Paris 5ème 75005 (4)","Paris 6ème 75006 (6)","Paris 7ème 75007 (5)","Paris 13ème 75013 (8)","Paris 14ème 75014 (6)","Paris 15ème 75015 (11)","STI Montparnasse
Vente, Achat, Location","STI Daguerre
Vente, Achat, Location","STI Duvernet
Vente, Achat, Location","S P
STI Pernety
Vente, Achat, Location, Gestion","S A
STI Alésia
Vente, Achat","S S
STI Syndic
Vente, Achat","S S
STI Syndic
Syndic de Copropriété","T N
Thierry NOAL
Directeur"
"1","LOFT APP'ART & CO"," 34 rue de l'Echiquier / 16 rue Hauteville 75010 Paris 10ème","http://www.seloger.com/professionnels/agences-immobilieres/paris-10eme-75/agency-63602.htm","0148016751","17","","16","0","0","Paris 1er 75001 (6)","Paris 2ème 75002 (3)","Paris 3ème 75003 (4)","Paris 4ème 75004 (6)","Paris 5ème 75005 (4)","Paris 6ème 75006 (6)","Viet Nam Hoang
Fondateur","Viet Nam M. Hoang
Fondateur","","","","","",""
"1","SELLIER PATRIMOINE"," 11 RUE DES FOSSES ST MARCEL 75005 PARIS 5EME","http://www.sellier-patrimoine.com/","+33 (0)1 42 75 01 11","17","","15","0","0","Paris 1er 75001 (6)","Paris 2ème 75002 (3)","Paris 3ème 75003 (4)","Paris 4ème 75004 (6)","Paris 5ème 75005 (4)","Paris 6ème 75006 (6)","D S
DENIS SELLIER
Directeur General et Expert Immobilier","","","","","","",""
"1","ZOLA IMMOBILIER"," 91 rue du Theatre 75015 Paris","http://www.agence-zola-immo.fr/","0153953130","10","1","0","1","0","Paris 1er 75001 (6)","Paris 2ème 75002 (2)","Paris 3ème 75003 (3)","Paris 4ème 75004 (5)","Paris 5ème 75005 (4)","Paris 6ème 75006 (6)","Jonathan ESCHER
Agent Commercial en immobilier","Gilles HOUDAYER
Directeur","","","","","",""
"1","AVL immobilier Laumière"," 118 RUE DE MEAUX 75019 Paris","http://www.avl-immobilier.com/","0142006200","8","14","10","2","2","Paris 10ème 75010 (4)","Paris 11ème 75011 (4)","Paris 13ème 75013 (8)","Paris 18ème 75018 (7)","Paris 19ème 75019 (9)","Paris 20ème 75020 (5)","B C
Benjamin CAUDRON
Responsable d'agence","R F
Rodolphe FINCK
Conseiller Immobilier","A B
Amazigh BELARBI
Conseiller Immobilier","R T
Régis TEFFO
Conseiller Immobilier","","","",""
"1","GARANCE IMMOBILIER"," 226 avenue Daumesnil 75012 Paris","http://www.garance-immo.com/","0153447788","5","2","2","0","0","Charenton-le-Pont 94220 (10)","Saint-Mandé 94160 (9)","Vincennes 94300 (4)","Paris 11ème 75011 (3)","Paris 12ème 75012 (9)","","J M
Julien MEURIOT
Conseiller Immobilier","D M
David MEZI
Conseiller Immobilier","A S
Amaury SCHUSTER
Conseiller Immobilier","S S
Sébastien SOUBIELLE
Conseiller Immobilier","R D
Roland DELESENNE
Conseiller Immobilier","L M
Léa MARINELLO
Conseiller Immobilier","",""
"1","IMMO'LAND"," 259 av Daumesnil 75012 Paris","http://media12.ac3-distribution.com/segments/immo/catalog/images/manufacturers_bareme/155551.pdf","0156950707","11","3","3","0","0","Paris 11ème 75011 (5)","Paris 12ème 75012 (9)","Paris 20ème 75020 (7)","Charenton-le-Pont 94220 (10)","Saint-Mandé 94160 (9)","Vincennes 94300 (4)","Joelle AMOYAL
Directrice","G H
Ghislaine HERNANDEZ
Négociatrice Immobilier","G A
Gary AMOYAL
Négociateur Immobilier","","","","",""
"1","MARC FOUJOLS GROUPE IMMOBILIER"," 15 avenue Paul Doumer 75116 Paris","http://www.marcfoujols.com/nos-honoraires/","0153700000","44","","0","0","0","Paris 16ème 75016 (8)","","","","","","Eva Subrini
Consultante","Nathalie Millereau
Consultante","Lila GIL
Consultante","Cristina PEREIRA
Consultante","Sandra SCOLLNICK
Consultante","Jean Michel FOUJOLS
Responsable commercial","Océane FRANCHINI
Assistante de direction","Paul LEMOINE
Consultant"
"1","SAINT Ferdinand Courcelles"," 107 rue de Courcelles 75017 Paris","http://www.agencessaintferdinand.com/","0143801017","5","6","5","1","0","","","","","","","J C
Jean-Yves CHICHEPORTICHE
Directeur","C E
Cathy ESABAL
Négociatrice Transaction","G B
Guy BISMUTH
Négociateur Transaction","C D
Claire DENOUAL
Négociatrice Transaction","C R
Cindy ROULET
Négociatrice Transaction","M E
Margaux ELBAZ
Négociatrice Transaction","S B
Sylvie BENICHOU
Responsable Gestion Locative","J E
Jennifer EDERY
Négociatrice Location"
"1","LAFORÊT IMMOBILIER SARL BEAULIEU IMMOBILIER"," 49 rue Boulard 75014 Paris","http://www.laforet.com/paris14boulard","0153901515",,"","1","2","0","Paris 6ème 75006 (2)","Paris 14ème 75014 (6)","Malakoff 92240 (11)","Montrouge 92120 (17)","","","Gilbert Chouchana
Directeur","Emmanuelle Dal'Moro
Responsable","Sarah Bellanger
Responsable Location","C G
Camille George
Conseillère en Immobilier","R C
Rémy Chouchana
Responsable Gestion Locative","A D
Alexis Derkaloustian
Conseiller Immobilier","",""
"1","GROUPE STI"," 17 rue Delambre 75014 Paris","http://www.sti-immo.com/","0143354637","1","1","0","1","0","Paris 5ème 75005 (4)","Paris 6ème 75006 (6)","Paris 7ème 75007 (5)","Paris 13ème 75013 (8)","Paris 14ème 75014 (6)","Paris 15ème 75015 (11)","STI Montparnasse
Vente, Achat, Location","STI Daguerre
Vente, Achat, Location","STI Duvernet
Vente, Achat, Location","S P
STI Pernety
Vente, Achat, Location, Gestion","S A
STI Alésia
Vente, Achat","S S
STI Syndic
Vente, Achat","S S
STI Syndic
Syndic de Copropriété","T N
Thierry NOAL
Directeur"
"1","LOFT APP'ART & CO"," 34 rue de l'Echiquier / 16 rue Hauteville 75010 Paris 10ème","http://www.seloger.com/professionnels/agences-immobilieres/paris-10eme-75/agency-63602.htm","0148016751","17","","16","0","0","Paris 6ème 75006 (6)","Paris 16ème 75016 (8)","Paris 1er 75001 (6)","Paris 2ème 75002 (3)","Paris 3ème 75003 (4)","Paris 4ème 75004 (6)","Viet Nam M. Hoang
Fondateur","Viet Nam Hoang
Fondateur","","","","","",""
"1","SELLIER PATRIMOINE"," 11 RUE DES FOSSES ST MARCEL 75005 PARIS 5EME","http://www.sellier-patrimoine.com/","+33 (0)1 42 75 01 11","17","","15","0","0","Paris 1er 75001 (6)","Paris 2ème 75002 (3)","Paris 3ème 75003 (4)","Paris 4ème 75004 (6)","Paris 5ème 75005 (4)","Paris 6ème 75006 (6)","D S
DENIS SELLIER
Directeur General et Expert Immobilier","","","","","","",""
"1","ZOLA IMMOBILIER"," 91 rue du Theatre 75015 Paris","http://www.agence-zola-immo.fr/","0153953130","10","1","0","1","0","Paris 1er 75001 (6)","Paris 2ème 75002 (2)","Paris 3ème 75003 (3)","Paris 4ème 75004 (5)","Paris 5ème 75005 (4)","Paris 6ème 75006 (6)","Jonathan ESCHER
Agent Commercial en immobilier","Gilles HOUDAYER
Directeur","","","","","",""
"1","SAINT FERDINAND PASSY-MUETTE"," 6 Chaussee de la Muette 75016 Paris 16ème","http://www.agencessaintferdinand.com/","0155743600","9","","0","0","0","Paris 16ème 75016 (8)","","","","","","","","","","","","",""
"1","MORISS IMMOBILIER PARIS CENTRE"," 110 rue Reaumur 75002 PARIS","http://www.morissimmobilier.com/","0155800162","20","","16","0","0","Paris 1er 75001 (6)","Paris 2ème 75002 (3)","Paris 3ème 75003 (4)","Paris 4ème 75004 (6)","Paris 9ème 75009 (5)","Paris 10ème 75010 (6)","Mickael Abitbol
Directeur d'agence","Tom Benisti
Responsable d'Agence","","","","","",""
"1","L'ADRESSE Paris 20"," 124 rue de Belleville 75020 Paris 20ème","http://www.ladresse-paris-jourdain.com/","0177367020","16","2","2","0","0","","","","","","","","","","","","","",""
"1","Stéphane Plaza Immobilier Agence Motte Picquet"," 50 avenue de la Motte Piquet 75015 Paris 15ème","http://media10.ac3-distribution.com/segments/immo/catalog/images/manufacturers_bareme/111408.pdf","0140650030","5","","0","0","0","Notre site web","","","","","","","","","","","","",""
"1","LA MAISON DE L IMMOBILIER PARIS"," 112 rue Réaumur 75002 Paris 2ème","http://media8.ac3-distribution.com/segments/immo/catalog/images/manufacturers_bareme/151944.pdf","0140390909","10","2","1","0","0","Paris 1er 75001 (6)","Paris 2ème 75002 (3)","Paris 3ème 75003 (4)","Paris 4ème 75004 (6)","Paris 9ème 75009 (2)","Paris 10ème 75010 (2)","Gurvan DALAISE
Associé-Manager","Carole DALAISE
Conseillère Immobilier","Vanessa SEGUNDO
Agent Commerciale","Anthony PECCHIA
Agent Commercial","A P
Alain PETIT
Gérant","","",""
"1","CENTURY 21 Action Pierre Vaugirard"," 377 bis rue de Vaugirard 75015 Paris","http://www.century21actionpierre.com/","0156085621","8","6","4","5","0","Paris 14ème 75014 (6)","Paris 15ème 75015 (11)","Paris 16ème 75016 (8)","Issy-les-Moulineaux 92130 (8)","","","Anne laure THION
Direction","Johan BOIXEL
Manager","Aurelie LE BIHAN
Assistante commerciale","Flavien PALLIOT
Conseiller en immobilier","Cyril ROQUET
Conseiller en immobilier","Laurent MONTIGNY
Conseiller en immobilier","Jeysson HERNANDEZ
Conseiller en immobilier","Olivier GALLOIS
Conseiller en immobilier"
"1","AGENCE PARIS SEINE CHERCHE MIDI"," 59 rue du Cherche Midi 75006 Paris","http://www.paris-seine-immobilier.com/","0145446600","12","13","6","7","0","Paris 1er 75001 (6)","Paris 2ème 75002 (3)","Paris 3ème 75003 (4)","Paris 4ème 75004 (6)","Paris 5ème 75005 (4)","Paris 6ème 75006 (6)","Frédéric JAUBERT
Directeur associé","Michel KESSLER
Directeur associé","Audrey MULLER
Conseillère / Négociatrice Vente","Morgann BERTHE
Conseillère / Négociatrice Vente","Alexandre CURTIL
Conseiller / Négociateur Vente","Emilie PAGIS - BENGUIGUI
Conseillère / Négociatrice Location","Nolwenn CARADEC
Conseillère / Négociatrice Location","Stéphanie WINTZ
Responsable Gestion Locative"
"1","MARNIER SEINE"," 69 rue de Seine 75006 Paris 6ème","http://www.marnier.fr/","0143292827","7","","2","0","0","Paris 5ème 75005 (2)","Paris 6ème 75006 (6)","Paris 7ème 75007 (2)","","","","A F
Anne Marie FARDEAU
agent Commercial","M R
Marie-Pierre ROCCARD-LORENDEAU
Agent Commercial","S K
Sophie KLAP
agent Commercial","D D
Dominique DISDERO
Negociatrice","N J
nicolas joder
negociateur","","",""
"1","LAFORÊT IMMOBILIER - BDO IMMOBILIER"," 114 rue de Turenne 75003 Paris","http://www.laforet.com/paris3-marais","0144541111",,"","0","1","0","","","","","","","Benjamin Azria
Directeur des agences LAFORET PARIS MARAIS - Gérant","Ambroise Cante
Conseiller immobilier VENTE ACHAT","Théo Adda
Conseiller immobilier GESTION LOCATION","Elodie Claude
Conseiller immobilier VENTE ACHAT","Mathieu Midol
Conseiller immobilier VENTE ACHAT","Laetitia Raoult
Conseiller immobilier VENTE ACHAT","Marie-Eva Reynaud
Conseiller immobilier GESTION LOCATION",""
"1","DAVID IMMOBILIER"," 71 bd de Courcelles 75008 Paris","http://www.davidimmo.com/","0147630808","10","2","1","1","0","+ Plus de détail","Notre site web","youtube","twitter","","","","","","","","","",""
"1","ZENATTI IMMOBILIER"," 27 rue Clauzel 75009 Paris","http://www.zenatti-immobilier.com/","0142850506","1","1","1","0","0","","","","","","","P Z
PIERRE ZENATTI
DIRECTEUR","F D
FREDERIC DE CASSON
CONSEILLER VENTE","V Z
VANESSA ZENATTI
CONSEILLERE VENTE","F R
FRANCOIS ROUSSELLE
MANAGER","S G
SYLVIA GIARRATANA
NEGOCIATRICE","E Z
ELISABETH ZENATTI
DIRECTRICE VENTE ET GESTION","S F
STEPHANIE FABRE
ASSISTANTE GESTION",""
"1","VOUILLÉ IMMOBILIER"," 37 rue de Vouillé 75015 Paris 15ème","http://media12.ac3-distribution.com/segments/immo/catalog/images/manufacturers_bareme/154896.pdf","0145316144","6","11","0","11","0","Paris 15ème 75015 (5)","","","","","","F D
Faustine DEBENEST
Conseillère en transactions immobilières","J C
Joëlle COUPON
Responsable du service gestion / location","F V
Françoise VOYER
Conseillère Location Gestion","A M
Anna MAXIMOFF
Assistante Gestion Locative","Bernard SCIUCCATI
Gérant","","",""
"1","SULLIVAN AGENCY"," 18 rue Benjamin Franklin 75116 Paris","http://www.sullivanagency.fr/","0155748100","3","2","2","0","0","Paris 6ème 75006 (6)","Paris 8ème 75008 (7)","Paris 16ème 75016 (1)","Paris 17ème 75017 (9)","Neuilly-sur-Seine 92200 (5)","","L D
LISA DUKAN
DIRECTRICE","F D
francoise DUKAN
Gerante","E E
Estelle ELBAZ
COLLABORATRICE EN ALTERNANCE","Delphine Szames
directrice d'agence","","","",""
"1","VANEAU 14eme"," 38 rue Boulard 75014 Paris","http://www.vaneau.fr/","0145450185","2","","16","0","0","+ Plus de détail","Notre site web","","","","","","","","","","","",""
"1","VANEAU Bac - Saint-Germain"," 25 rue Vaneau 75007 Paris","http://www.vaneau.fr/","0145554663","18","3","3","0","0","","","","","","","","","","","","","",""
"1","VANEAU CHAMP DE MARS"," 69 avenue de Bosquet 75007 Paris","http://www.vaneau.fr/","0144117575","10","","0","0","0","Paris 7ème 75007 (5)","","","","","","","","","","","","",""
"1","Vaneau LUXEMBOURG"," 13 rue Vavin 75006 Paris","http://www.vaneau.fr/","0144414141","18","1","1","0","0","","","","","","","","","","","","","",""
"1","ACTIA CONSEIL"," 53 rue Blanche 75009 Paris 9ème","http://www.vend-appartement-paris.fr/","0153200180","12","1","0","0","0","Paris 8ème 75008 (3)","Paris 9ème 75009 (5)","Paris 17ème 75017 (9)","Paris 18ème 75018 (8)","","","M N
Michael NGUYEN
Directeur de vente & Associé , Expert immobilier agrée .","C L
Corinne LAMESA
Gérant Fondatrice pôle Gestion","M N
Maxime Nicolas
Assistant gestion","F D
Fréderique Duvivier
Responsable Chasseur immobilier","C L
Cyril LAMESA
Directeur Fondateur","","",""
"1","AVL immobilier Laumière"," 118 RUE DE MEAUX 75019 Paris","http://www.avl-immobilier.com/","0142006200","8","14","10","2","2","Paris 10ème 75010 (4)","Paris 11ème 75011 (4)","Paris 13ème 75013 (8)","Paris 18ème 75018 (7)","Paris 19ème 75019 (9)","Paris 20ème 75020 (5)","B C
Benjamin CAUDRON
Responsable d'agence","R F
Rodolphe FINCK
Conseiller Immobilier","A B
Amazigh BELARBI
Conseiller Immobilier","R T
Régis TEFFO
Conseiller Immobilier","","","",""
"1","GARANCE IMMOBILIER"," 226 avenue Daumesnil 75012 Paris","http://www.garance-immo.com/","0153447788","5","2","2","0","0","Paris 11ème 75011 (3)","Paris 12ème 75012 (9)","Charenton-le-Pont 94220 (10)","Saint-Mandé 94160 (9)","Vincennes 94300 (4)","","J M
Julien MEURIOT
Conseiller Immobilier","D M
David MEZI
Conseiller Immobilier","A S
Amaury SCHUSTER
Conseiller Immobilier","S S
Sébastien SOUBIELLE
Conseiller Immobilier","R D
Roland DELESENNE
Conseiller Immobilier","L M
Léa MARINELLO
Conseiller Immobilier","",""
"1","IMMO'LAND"," 259 av Daumesnil 75012 Paris","http://media12.ac3-distribution.com/segments/immo/catalog/images/manufacturers_bareme/155551.pdf","0156950707","11","3","3","0","0","Paris 11ème 75011 (5)","Paris 12ème 75012 (9)","Paris 20ème 75020 (7)","Charenton-le-Pont 94220 (10)","Saint-Mandé 94160 (9)","Vincennes 94300 (4)","G H
Ghislaine HERNANDEZ
Négociatrice Immobilier","G A
Gary AMOYAL
Négociateur Immobilier","Joelle AMOYAL
Directrice","","","","",""
"1","MARC FOUJOLS GROUPE IMMOBILIER"," 15 avenue Paul Doumer 75116 Paris","http://www.marcfoujols.com/nos-honoraires/","0153700000","44","","0","0","0","Paris 16ème 75016 (8)","","","","","","Jean Michel FOUJOLS
Responsable commercial","Océane FRANCHINI
Assistante de direction","Paul LEMOINE
Consultant","Zoya SECORD
Consultante","Sandra SCOLLNICK
Consultante","Cristina PEREIRA
Consultante","Lila GIL
Consultante","Eva Subrini
Consultante"
"1","SAINT Ferdinand Courcelles"," 107 rue de Courcelles 75017 Paris","http://www.agencessaintferdinand.com/","0143801017","5","6","5","1","0","","","","","","","J C
Jean-Yves CHICHEPORTICHE
Directeur","C E
Cathy ESABAL
Négociatrice Transaction","G B
Guy BISMUTH
Négociateur Transaction","C D
Claire DENOUAL
Négociatrice Transaction","C R
Cindy ROULET
Négociatrice Transaction","M E
Margaux ELBAZ
Négociatrice Transaction","S B
Sylvie BENICHOU
Responsable Gestion Locative","J E
Jennifer EDERY
Négociatrice Location"
"1","LAFORÊT IMMOBILIER SARL BEAULIEU IMMOBILIER"," 49 rue Boulard 75014 Paris","http://www.laforet.com/paris14boulard","0153901515",,"","1","2","0","Paris 6ème 75006 (2)","Paris 14ème 75014 (6)","Malakoff 92240 (11)","Montrouge 92120 (17)","","","Gilbert Chouchana
Directeur","Emmanuelle Dal'Moro
Responsable","Sarah Bellanger
Responsable Location","C G
Camille George
Conseillère en Immobilier","R C
Rémy Chouchana
Responsable Gestion Locative","A D
Alexis Derkaloustian
Conseiller Immobilier","",""
"1","GROUPE STI"," 17 rue Delambre 75014 Paris","http://www.sti-immo.com/","0143354637","1","1","0","1","0","Paris 5ème 75005 (4)","Paris 6ème 75006 (6)","Paris 7ème 75007 (5)","Paris 13ème 75013 (8)","Paris 14ème 75014 (6)","Paris 15ème 75015 (11)","STI Montparnasse
Vente, Achat, Location","STI Daguerre
Vente, Achat, Location","STI Duvernet
Vente, Achat, Location","S P
STI Pernety
Vente, Achat, Location, Gestion","S A
STI Alésia
Vente, Achat","S S
STI Syndic
Vente, Achat","S S
STI Syndic
Syndic de Copropriété","T N
Thierry NOAL
Directeur"
"1","LOFT APP'ART & CO"," 34 rue de l'Echiquier / 16 rue Hauteville 75010 Paris 10ème","http://www.seloger.com/professionnels/agences-immobilieres/paris-10eme-75/agency-63602.htm","0148016751","17","","16","0","0","Paris 1er 75001 (6)","Paris 2ème 75002 (3)","Paris 3ème 75003 (4)","Paris 4ème 75004 (6)","Paris 5ème 75005 (4)","Paris 6ème 75006 (6)","Viet Nam Hoang
Fondateur","Viet Nam M. Hoang
Fondateur","","","","","",""
"1","SELLIER PATRIMOINE"," 11 RUE DES FOSSES ST MARCEL 75005 PARIS 5EME","http://www.sellier-patrimoine.com/","+33 (0)1 42 75 01 11","17","","14","1","0","Paris 1er 75001 (6)","Paris 2ème 75002 (3)","Paris 3ème 75003 (4)","Paris 4ème 75004 (6)","Paris 5ème 75005 (4)","Paris 6ème 75006 (6)","D S
DENIS SELLIER
Directeur General et Expert Immobilier","","","","","","",""
"1","ZOLA IMMOBILIER"," 91 rue du Theatre 75015 Paris","http://www.agence-zola-immo.fr/","0153953130","10","1","0","1","0","Paris 1er 75001 (6)","Paris 2ème 75002 (2)","Paris 3ème 75003 (3)","Paris 4ème 75004 (5)","Paris 5ème 75005 (4)","Paris 6ème 75006 (6)","Jonathan ESCHER
Agent Commercial en immobilier","Gilles HOUDAYER
Directeur","","","","","",""
"1","SAINT FERDINAND PASSY-MUETTE"," 6 Chaussee de la Muette 75016 Paris 16ème","http://www.agencessaintferdinand.com/","0155743600","9","","0","0","0","Paris 16ème 75016 (8)","","","","","","","","","","","","",""
"1","MORISS IMMOBILIER PARIS CENTRE"," 110 rue Reaumur 75002 PARIS","http://www.morissimmobilier.com/","0155800162","20","","16","0","0","Paris 1er 75001 (6)","Paris 2ème 75002 (3)","Paris 3ème 75003 (4)","Paris 4ème 75004 (6)","Paris 9ème 75009 (5)","Paris 10ème 75010 (6)","Tom Benisti
Responsable d'Agence","Mickael Abitbol
Directeur d'agence","","","","","",""
"1","L'ADRESSE Paris 20"," 124 rue de Belleville 75020 Paris 20ème","http://www.ladresse-paris-jourdain.com/","0177367020","16","2","2","0","0","","","","","","","","","","","","","",""
"1","Stéphane Plaza Immobilier Agence Motte Picquet"," 50 avenue de la Motte Piquet 75015 Paris 15ème","http://media10.ac3-distribution.com/segments/immo/catalog/images/manufacturers_bareme/111408.pdf","0140650030","5","","0","0","0","Notre site web","","","","","","","","","","","","",""
"1","LA MAISON DE L IMMOBILIER PARIS"," 112 rue Réaumur 75002 Paris 2ème","http://media8.ac3-distribution.com/segments/immo/catalog/images/manufacturers_bareme/151944.pdf","0140390909","10","2","1","0","0","Paris 1er 75001 (6)","Paris 2ème 75002 (3)","Paris 3ème 75003 (4)","Paris 4ème 75004 (6)","Paris 9ème 75009 (2)","Paris 10ème 75010 (2)","Gurvan DALAISE
Associé-Manager","Carole DALAISE
Conseillère Immobilier","Vanessa SEGUNDO
Agent Commerciale","Anthony PECCHIA
Agent Commercial","A P
Alain PETIT
Gérant","","",""
"1","CENTURY 21 Action Pierre Vaugirard"," 377 bis rue de Vaugirard 75015 Paris","http://www.century21actionpierre.com/","0156085621","8","6","4","5","0","Paris 14ème 75014 (6)","Paris 15ème 75015 (11)","Paris 16ème 75016 (8)","Issy-les-Moulineaux 92130 (8)","","","Anne laure THION
Direction","Johan BOIXEL
Manager","Aurelie LE BIHAN
Assistante commerciale","Flavien PALLIOT
Conseiller en immobilier","Cyril ROQUET
Conseiller en immobilier","Laurent MONTIGNY
Conseiller en immobilier","Jeysson HERNANDEZ
Conseiller en immobilier","Olivier GALLOIS
Conseiller en immobilier"
"1","AGENCE PARIS SEINE CHERCHE MIDI"," 59 rue du Cherche Midi 75006 Paris","http://www.paris-seine-immobilier.com/","0145446600","12","13","6","7","0","Paris 1er 75001 (6)","Paris 2ème 75002 (3)","Paris 3ème 75003 (4)","Paris 4ème 75004 (6)","Paris 5ème 75005 (4)","Paris 6ème 75006 (6)","Frédéric JAUBERT
Directeur associé","Michel KESSLER
Directeur associé","Audrey MULLER
Conseillère / Négociatrice Vente","Morgann BERTHE
Conseillère / Négociatrice Vente","Alexandre CURTIL
Conseiller / Négociateur Vente","Emilie PAGIS - BENGUIGUI
Conseillère / Négociatrice Location","Nolwenn CARADEC
Conseillère / Négociatrice Location","Stéphanie WINTZ
Responsable Gestion Locative"
"1","MARNIER SEINE"," 69 rue de Seine 75006 Paris 6ème","http://www.marnier.fr/","0143292827","7","","2","0","0","Paris 5ème 75005 (2)","Paris 6ème 75006 (6)","Paris 7ème 75007 (2)","","","","A F
Anne Marie FARDEAU
agent Commercial","M R
Marie-Pierre ROCCARD-LORENDEAU
Agent Commercial","S K
Sophie KLAP
agent Commercial","D D
Dominique DISDERO
Negociatrice","N J
nicolas joder
negociateur","","",""
"1","LAFORÊT IMMOBILIER - BDO IMMOBILIER"," 114 rue de Turenne 75003 Paris","http://www.laforet.com/paris3-marais","0144541111",,"","0","1","0","","","","","","","Benjamin Azria
Directeur des agences LAFORET PARIS MARAIS - Gérant","Ambroise Cante
Conseiller immobilier VENTE ACHAT","Théo Adda
Conseiller immobilier GESTION LOCATION","Elodie Claude
Conseiller immobilier VENTE ACHAT","Mathieu Midol
Conseiller immobilier VENTE ACHAT","Laetitia Raoult
Conseiller immobilier VENTE ACHAT","Marie-Eva Reynaud
Conseiller immobilier GESTION LOCATION",""
"1","DAVID IMMOBILIER"," 71 bd de Courcelles 75008 Paris","http://www.davidimmo.com/","0147630808","10","2","1","1","0","+ Plus de détail","Notre site web","youtube","twitter","","","","","","","","","",""
"1","ZENATTI IMMOBILIER"," 27 rue Clauzel 75009 Paris","http://www.zenatti-immobilier.com/","0142850506","1","1","1","0","0","","","","","","","P Z
PIERRE ZENATTI
DIRECTEUR","F D
FREDERIC DE CASSON
CONSEILLER VENTE","V Z
VANESSA ZENATTI
CONSEILLERE VENTE","F R
FRANCOIS ROUSSELLE
MANAGER","S G
SYLVIA GIARRATANA
NEGOCIATRICE","E Z
ELISABETH ZENATTI
DIRECTRICE VENTE ET GESTION","S F
STEPHANIE FABRE
ASSISTANTE GESTION",""
"1","VOUILLÉ IMMOBILIER"," 37 rue de Vouillé 75015 Paris 15ème","http://media12.ac3-distribution.com/segments/immo/catalog/images/manufacturers_bareme/154896.pdf","0145316144","6","11","0","11","0","Paris 15ème 75015 (5)","","","","","","Bernard SCIUCCATI
Gérant","J C
Joëlle COUPON
Responsable du service gestion / location","F V
Françoise VOYER
Conseillère Location Gestion","A M
Anna MAXIMOFF
Assistante Gestion Locative","F D
Faustine DEBENEST
Conseillère en transactions immobilières","","",""
"1","SULLIVAN AGENCY"," 18 rue Benjamin Franklin 75116 Paris","http://www.sullivanagency.fr/","0155748100","3","2","2","0","0","Paris 6ème 75006 (6)","Paris 8ème 75008 (7)","Paris 16ème 75016 (1)","Paris 17ème 75017 (9)","Neuilly-sur-Seine 92200 (5)","","Delphine Szames
directrice d'agence","L D
LISA DUKAN
DIRECTRICE","F D
francoise DUKAN
Gerante","E E
Estelle ELBAZ
COLLABORATRICE EN ALTERNANCE","","","",""
"1","VANEAU 14eme"," 38 rue Boulard 75014 Paris","http://www.vaneau.fr/","0145450185","2","","16","0","0","+ Plus de détail","Notre site web","","","","","","","","","","","",""
"1","VANEAU Bac - Saint-Germain"," 25 rue Vaneau 75007 Paris","http://www.vaneau.fr/","0145554663","18","3","3","0","0","","","","","","","","","","","","","",""
"1","VANEAU CHAMP DE MARS"," 69 avenue de Bosquet 75007 Paris","http://www.vaneau.fr/","0144117575","10","","0","0","0","Paris 7ème 75007 (5)","","","","","","","","","","","","",""
"1","Vaneau LUXEMBOURG"," 13 rue Vavin 75006 Paris","http://www.vaneau.fr/","0144414141","18","1","1","0","0","","","","","","","","","","","","","",""
"1","ACTIA CONSEIL"," 53 rue Blanche 75009 Paris 9ème","http://www.vend-appartement-paris.fr/","0153200180","12","1","0","0","0","Paris 8ème 75008 (3)","Paris 9ème 75009 (5)","Paris 17ème 75017 (9)","Paris 18ème 75018 (8)","","","M N
Michael NGUYEN
Directeur de vente & Associé , Expert immobilier agrée .","C L
Corinne LAMESA
Gérant Fondatrice pôle Gestion","M N
Maxime Nicolas
Assistant gestion","F D
Fréderique Duvivier
Responsable Chasseur immobilier","C L
Cyril LAMESA
Directeur Fondateur","","",""
"1","AVL immobilier Laumière"," 118 RUE DE MEAUX 75019 Paris","http://www.avl-immobilier.com/","0142006200","8","14","10","2","2","Paris 10ème 75010 (4)","Paris 11ème 75011 (4)","Paris 13ème 75013 (8)","Paris 18ème 75018 (7)","Paris 19ème 75019 (9)","Paris 20ème 75020 (5)","B C
Benjamin CAUDRON
Responsable d'agence","R F
Rodolphe FINCK
Conseiller Immobilier","A B
Amazigh BELARBI
Conseiller Immobilier","R T
Régis TEFFO
Conseiller Immobilier","","","",""
"1","GARANCE IMMOBILIER"," 226 avenue Daumesnil 75012 Paris","http://www.garance-immo.com/","0153447788","5","2","2","0","0","Paris 11ème 75011 (3)","Paris 12ème 75012 (9)","Charenton-le-Pont 94220 (10)","Saint-Mandé 94160 (9)","Vincennes 94300 (4)","","S S
Sébastien SOUBIELLE
Conseiller Immobilier","R D
Roland DELESENNE
Conseiller Immobilier","L M
Léa MARINELLO
Conseiller Immobilier","J M
Julien MEURIOT
Conseiller Immobilier","D M
David MEZI
Conseiller Immobilier","A S
Amaury SCHUSTER
Conseiller Immobilier","",""
"1","IMMO'LAND"," 259 av Daumesnil 75012 Paris","http://media12.ac3-distribution.com/segments/immo/catalog/images/manufacturers_bareme/155551.pdf","0156950707","11","3","3","0","0","Paris 11ème 75011 (5)","Paris 12ème 75012 (9)","Paris 20ème 75020 (7)","Charenton-le-Pont 94220 (10)","Saint-Mandé 94160 (9)","Vincennes 94300 (4)","Joelle AMOYAL
Directrice","G H
Ghislaine HERNANDEZ
Négociatrice Immobilier","G A
Gary AMOYAL
Négociateur Immobilier","","","","",""
"1","MARC FOUJOLS GROUPE IMMOBILIER"," 15 avenue Paul Doumer 75116 Paris","http://www.marcfoujols.com/nos-honoraires/","0153700000","44","","0","0","0","Paris 16ème 75016 (8)","","","","","","Jean Michel FOUJOLS
Responsable commercial","Océane FRANCHINI
Assistante de direction","Paul LEMOINE
Consultant","Zoya SECORD
Consultante","Sandra SCOLLNICK
Consultante","Cristina PEREIRA
Consultante","Lila GIL
Consultante","Eva Subrini
Consultante"
"1","SAINT Ferdinand Courcelles"," 107 rue de Courcelles 75017 Paris","http://www.agencessaintferdinand.com/","0143801017","5","6","5","1","0","","","","","","","J C
Jean-Yves CHICHEPORTICHE
Directeur","C E
Cathy ESABAL
Négociatrice Transaction","G B
Guy BISMUTH
Négociateur Transaction","C D
Claire DENOUAL
Négociatrice Transaction","C R
Cindy ROULET
Négociatrice Transaction","M E
Margaux ELBAZ
Négociatrice Transaction","S B
Sylvie BENICHOU
Responsable Gestion Locative","J E
Jennifer EDERY
Négociatrice Location"
"1","LAFORÊT IMMOBILIER SARL BEAULIEU IMMOBILIER"," 49 rue Boulard 75014 Paris","http://www.laforet.com/paris14boulard","0153901515",,"","1","2","0","Paris 6ème 75006 (2)","Paris 14ème 75014 (6)","Malakoff 92240 (11)","Montrouge 92120 (17)","","","A D
Alexis Derkaloustian
Conseiller Immobilier","Gilbert Chouchana
Directeur","Emmanuelle Dal'Moro
Responsable","Sarah Bellanger
Responsable Location","C G
Camille George
Conseillère en Immobilier","R C
Rémy Chouchana
Responsable Gestion Locative","",""
"1","GROUPE STI"," 17 rue Delambre 75014 Paris","http://www.sti-immo.com/","0143354637","1","1","0","1","0","Paris 5ème 75005 (4)","Paris 6ème 75006 (6)","Paris 7ème 75007 (5)","Paris 13ème 75013 (8)","Paris 14ème 75014 (6)","Paris 15ème 75015 (11)","T N
Thierry NOAL
Directeur","J F
Jérôme FEDIDA
Négociateur immobilier","STI Daguerre
Vente, Achat, Location","STI Duvernet
Vente, Achat, Location","S P
STI Pernety
Vente, Achat, Location, Gestion","S A
STI Alésia
Vente, Achat","S S
STI Syndic
Vente, Achat","S S
STI Syndic
Syndic de Copropriété"
"1","LOFT APP'ART & CO"," 34 rue de l'Echiquier / 16 rue Hauteville 75010 Paris 10ème","http://www.seloger.com/professionnels/agences-immobilieres/paris-10eme-75/agency-63602.htm","0148016751","17","","16","0","0","Paris 1er 75001 (6)","Paris 2ème 75002 (3)","Paris 3ème 75003 (4)","Paris 4ème 75004 (6)","Paris 5ème 75005 (4)","Paris 6ème 75006 (6)","Viet Nam Hoang
Fondateur","Viet Nam M. Hoang
Fondateur","","","","","",""
"1","SELLIER PATRIMOINE"," 11 RUE DES FOSSES ST MARCEL 75005 PARIS 5EME","http://www.sellier-patrimoine.com/","+33 (0)1 42 75 01 11","17","","14","1","0","Paris 1er 75001 (6)","Paris 2ème 75002 (3)","Paris 3ème 75003 (4)","Paris 4ème 75004 (6)","Paris 5ème 75005 (4)","Paris 6ème 75006 (6)","D S
DENIS SELLIER
Directeur General et Expert Immobilier","","","","","","",""
"1","ZOLA IMMOBILIER"," 91 rue du Theatre 75015 Paris","http://www.agence-zola-immo.fr/","0153953130","10","1","0","1","0","Paris 1er 75001 (6)","Paris 2ème 75002 (2)","Paris 3ème 75003 (3)","Paris 4ème 75004 (5)","Paris 5ème 75005 (4)","Paris 6ème 75006 (6)","Jonathan ESCHER
Agent Commercial en immobilier","Gilles HOUDAYER
Directeur","","","","","",""
"1",," 118 RUE DE MEAUX 75019 Paris","http://www.avl-immobilier.com/","0142006200","8","14","10","2","2","Paris 10ème 75010 (4)","Paris 11ème 75011 (4)","Paris 13ème 75013 (8)","Paris 18ème 75018 (7)","Paris 19ème 75019 (9)","Paris 20ème 75020 (5)","B C
Benjamin CAUDRON
Responsable d'agence","R F
Rodolphe FINCK
Conseiller Immobilier","A B
Amazigh BELARBI
Conseiller Immobilier","R T
Régis TEFFO
Conseiller Immobilier","","","",""
"1","GARANCE IMMOBILIER"," 226 avenue Daumesnil 75012 Paris","http://www.garance-immo.com/","0153447788","5","2","2","0","0","Paris 11ème 75011 (3)","Paris 12ème 75012 (9)","Charenton-le-Pont 94220 (10)","Saint-Mandé 94160 (9)","Vincennes 94300 (4)","","S S
Sébastien SOUBIELLE
Conseiller Immobilier","R D
Roland DELESENNE
Conseiller Immobilier","L M
Léa MARINELLO
Conseiller Immobilier","J M
Julien MEURIOT
Conseiller Immobilier","D M
David MEZI
Conseiller Immobilier","A S
Amaury SCHUSTER
Conseiller Immobilier","",""
"1","IMMO'LAND"," 259 av Daumesnil 75012 Paris","http://media12.ac3-distribution.com/segments/immo/catalog/images/manufacturers_bareme/155551.pdf","0156950707","11","3","3","0","0","Paris 11ème 75011 (5)","Paris 12ème 75012 (9)","Paris 20ème 75020 (7)","Charenton-le-Pont 94220 (10)","Saint-Mandé 94160 (9)","Vincennes 94300 (4)","G H
Ghislaine HERNANDEZ
Négociatrice Immobilier","G A
Gary AMOYAL
Négociateur Immobilier","Joelle AMOYAL
Directrice","","","","",""
"1","MARC FOUJOLS GROUPE IMMOBILIER"," 15 avenue Paul Doumer 75116 Paris","http://www.marcfoujols.com/nos-honoraires/","0153700000","44","","0","0","0","Paris 16ème 75016 (8)","","","","","","Jean Michel FOUJOLS
Responsable commercial","Océane FRANCHINI
Assistante de direction","Paul LEMOINE
Consultant","Zoya SECORD
Consultante","Sandra SCOLLNICK
Consultante","Cristina PEREIRA
Consultante","Lila GIL
Consultante","Eva Subrini
Consultante"
"1","SAINT Ferdinand Courcelles"," 107 rue de Courcelles 75017 Paris","http://www.agencessaintferdinand.com/","0143801017","5","6","5","1","0","","","","","","","J C
Jean-Yves CHICHEPORTICHE
Directeur","C E
Cathy ESABAL
Négociatrice Transaction","G B
Guy BISMUTH
Négociateur Transaction","C D
Claire DENOUAL
Négociatrice Transaction","C R
Cindy ROULET
Négociatrice Transaction","M E
Margaux ELBAZ
Négociatrice Transaction","S B
Sylvie BENICHOU
Responsable Gestion Locative","J E
Jennifer EDERY
Négociatrice Location"
"1","LAFORÊT IMMOBILIER SARL BEAULIEU IMMOBILIER"," 49 rue Boulard 75014 Paris","http://www.laforet.com/paris14boulard","0153901515",,"","1","2","0","Paris 6ème 75006 (2)","Paris 14ème 75014 (6)","Malakoff 92240 (11)","Montrouge 92120 (17)","","","Gilbert Chouchana
Directeur","Emmanuelle Dal'Moro
Responsable","Sarah Bellanger
Responsable Location","C G
Camille George
Conseillère en Immobilier","R C
Rémy Chouchana
Responsable Gestion Locative","A D
Alexis Derkaloustian
Conseiller Immobilier","",""
"1","GROUPE STI"," 17 rue Delambre 75014 Paris","http://www.sti-immo.com/","0143354637","1","1","0","1","0","Paris 5ème 75005 (4)","Paris 6ème 75006 (6)","Paris 7ème 75007 (5)","Paris 13ème 75013 (8)","Paris 14ème 75014 (6)","Paris 15ème 75015 (11)","T N
Thierry NOAL
Directeur","J F
Jérôme FEDIDA
Négociateur immobilier","STI Daguerre
Vente, Achat, Location","STI Duvernet
Vente, Achat, Location","S P
STI Pernety
Vente, Achat, Location, Gestion","S A
STI Alésia
Vente, Achat","S S
STI Syndic
Vente, Achat","S S
STI Syndic
Syndic de Copropriété"
"1","LOFT APP'ART & CO"," 34 rue de l'Echiquier / 16 rue Hauteville 75010 Paris 10ème","http://www.seloger.com/professionnels/agences-immobilieres/paris-10eme-75/agency-63602.htm","0148016751","17","","16","0","0","Paris 1er 75001 (6)","Paris 2ème 75002 (3)","Paris 3ème 75003 (4)","Paris 4ème 75004 (6)","Paris 5ème 75005 (4)","Paris 6ème 75006 (6)","Viet Nam Hoang
Fondateur","Viet Nam M. Hoang
Fondateur","","","","","",""
"1","SELLIER PATRIMOINE"," 11 RUE DES FOSSES ST MARCEL 75005 PARIS 5EME","http://www.sellier-patrimoine.com/","+33 (0)1 42 75 01 11","17","","14","1","0","Paris 1er 75001 (6)","Paris 2ème 75002 (3)","Paris 3ème 75003 (4)","Paris 4ème 75004 (6)","Paris 5ème 75005 (4)","Paris 6ème 75006 (6)","D S
DENIS SELLIER
Directeur General et Expert Immobilier","","","","","","",""
"1","ZOLA IMMOBILIER"," 91 rue du Theatre 75015 Paris","http://www.agence-zola-immo.fr/","0153953130","10","1","0","1","0","Paris 1er 75001 (6)","Paris 2ème 75002 (2)","Paris 3ème 75003 (3)","Paris 4ème 75004 (5)","Paris 5ème 75005 (4)","Paris 6ème 75006 (6)","Jonathan ESCHER
Agent Commercial en immobilier","Gilles HOUDAYER
Directeur","","","","","",""
"1","SAINT FERDINAND PASSY-MUETTE"," 6 Chaussee de la Muette 75016 Paris 16ème","http://www.agencessaintferdinand.com/","0155743600","9","","0","0","0","Paris 16ème 75016 (8)","","","","","","","","","","","","",""
"1","MORISS IMMOBILIER PARIS CENTRE"," 110 rue Reaumur 75002 PARIS","http://www.morissimmobilier.com/","0155800162","20","","16","0","0","Paris 1er 75001 (6)","Paris 2ème 75002 (3)","Paris 3ème 75003 (4)","Paris 4ème 75004 (6)","Paris 9ème 75009 (5)","Paris 10ème 75010 (6)","Tom Benisti
Responsable d'Agence","Mickael Abitbol
Directeur d'agence","","","","","",""
"1","L'ADRESSE Paris 20"," 124 rue de Belleville 75020 Paris 20ème","http://www.ladresse-paris-jourdain.com/","0177367020","16","2","2","0","0","","","","","","","","","","","","","",""
"1","Stéphane Plaza Immobilier Agence Motte Picquet"," 50 avenue de la Motte Piquet 75015 Paris 15ème","http://media10.ac3-distribution.com/segments/immo/catalog/images/manufacturers_bareme/111408.pdf","0140650030","5","","0","0","0","Notre site web","","","","","","","","","","","","",""
"1","LA MAISON DE L IMMOBILIER PARIS"," 112 rue Réaumur 75002 Paris 2ème","http://media8.ac3-distribution.com/segments/immo/catalog/images/manufacturers_bareme/151944.pdf","0140390909","10","2","1","0","0","Paris 1er 75001 (6)","Paris 2ème 75002 (3)","Paris 3ème 75003 (4)","Paris 4ème 75004 (6)","Paris 9ème 75009 (2)","Paris 10ème 75010 (2)","Gurvan DALAISE
Associé-Manager","Carole DALAISE
Conseillère Immobilier","Vanessa SEGUNDO
Agent Commerciale","Anthony PECCHIA
Agent Commercial","A P
Alain PETIT
Gérant","","",""
"1","CENTURY 21 Action Pierre Vaugirard"," 377 bis rue de Vaugirard 75015 Paris","http://www.century21actionpierre.com/","0156085621","8","6","4","5","0","Paris 14ème 75014 (6)","Paris 15ème 75015 (11)","Paris 16ème 75016 (8)","Issy-les-Moulineaux 92130 (8)","","","Anne laure THION
Direction","Johan BOIXEL
Manager","Aurelie LE BIHAN
Assistante commerciale","Flavien PALLIOT
Conseiller en immobilier","Cyril ROQUET
Conseiller en immobilier","Laurent MONTIGNY
Conseiller en immobilier","Jeysson HERNANDEZ
Conseiller en immobilier","Olivier GALLOIS
Conseiller en immobilier"
"1","AGENCE PARIS SEINE CHERCHE MIDI"," 59 rue du Cherche Midi 75006 Paris","http://www.paris-seine-immobilier.com/","0145446600","12","13","6","7","0","Paris 1er 75001 (6)","Paris 2ème 75002 (3)","Paris 3ème 75003 (4)","Paris 4ème 75004 (6)","Paris 5ème 75005 (4)","Paris 6ème 75006 (6)","Frédéric JAUBERT
Directeur associé","Michel KESSLER
Directeur associé","Audrey MULLER
Conseillère / Négociatrice Vente","Morgann BERTHE
Conseillère / Négociatrice Vente","Alexandre CURTIL
Conseiller / Négociateur Vente","Emilie PAGIS - BENGUIGUI
Conseillère / Négociatrice Location","Nolwenn CARADEC
Conseillère / Négociatrice Location","Stéphanie WINTZ
Responsable Gestion Locative"
"1","MARNIER SEINE"," 69 rue de Seine 75006 Paris 6ème","http://www.marnier.fr/","0143292827","7","","2","0","0","Paris 5ème 75005 (2)","Paris 6ème 75006 (6)","Paris 7ème 75007 (2)","","","","A F
Anne Marie FARDEAU
agent Commercial","M R
Marie-Pierre ROCCARD-LORENDEAU
Agent Commercial","S K
Sophie KLAP
agent Commercial","D D
Dominique DISDERO
Negociatrice","N J
nicolas joder
negociateur","","",""
"1","LAFORÊT IMMOBILIER - BDO IMMOBILIER"," 114 rue de Turenne 75003 Paris","http://www.laforet.com/paris3-marais","0144541111",,"","0","1","0","","","","","","","Benjamin Azria
Directeur des agences LAFORET PARIS MARAIS - Gérant","Ambroise Cante
Conseiller immobilier VENTE ACHAT","Théo Adda
Conseiller immobilier GESTION LOCATION","Elodie Claude
Conseiller immobilier VENTE ACHAT","Mathieu Midol
Conseiller immobilier VENTE ACHAT","Laetitia Raoult
Conseiller immobilier VENTE ACHAT","Marie-Eva Reynaud
Conseiller immobilier GESTION LOCATION",""
"1","DAVID IMMOBILIER"," 71 bd de Courcelles 75008 Paris","http://www.davidimmo.com/","0147630808","10","2","1","1","0","+ Plus de détail","Notre site web","youtube","twitter","","","","","","","","","",""
"1","ZENATTI IMMOBILIER"," 27 rue Clauzel 75009 Paris","http://www.zenatti-immobilier.com/","0142850506","1","1","1","0","0","","","","","","","P Z
PIERRE ZENATTI
DIRECTEUR","F D
FREDERIC DE CASSON
CONSEILLER VENTE","V Z
VANESSA ZENATTI
CONSEILLERE VENTE","F R
FRANCOIS ROUSSELLE
MANAGER","S G
SYLVIA GIARRATANA
NEGOCIATRICE","E Z
ELISABETH ZENATTI
DIRECTRICE VENTE ET GESTION","S F
STEPHANIE FABRE
ASSISTANTE GESTION",""
"1","VOUILLÉ IMMOBILIER"," 37 rue de Vouillé 75015 Paris 15ème","http://media12.ac3-distribution.com/segments/immo/catalog/images/manufacturers_bareme/154896.pdf","0145316144","6","11","0","11","0","Paris 15ème 75015 (5)","","","","","","Bernard SCIUCCATI
Gérant","J C
Joëlle COUPON
Responsable du service gestion / location","F V
Françoise VOYER
Conseillère Location Gestion","A M
Anna MAXIMOFF
Assistante Gestion Locative","F D
Faustine DEBENEST
Conseillère en transactions immobilières","","",""
"1","SULLIVAN AGENCY"," 18 rue Benjamin Franklin 75116 Paris","http://www.sullivanagency.fr/","0155748100","3","2","2","0","0","Paris 6ème 75006 (6)","Paris 8ème 75008 (7)","Paris 16ème 75016 (1)","Paris 17ème 75017 (9)","Neuilly-sur-Seine 92200 (5)","","Delphine Szames
directrice d'agence","L D
LISA DUKAN
DIRECTRICE","F D
francoise DUKAN
Gerante","E E
Estelle ELBAZ
COLLABORATRICE EN ALTERNANCE","","","",""
"1","VANEAU 14eme"," 38 rue Boulard 75014 Paris","http://www.vaneau.fr/","0145450185","2","","16","0","0","+ Plus de détail","Notre site web","","","","","","","","","","","",""
"1","VANEAU Bac - Saint-Germain"," 25 rue Vaneau 75007 Paris","http://www.vaneau.fr/","0145554663","18","3","3","0","0","","","","","","","","","","","","","",""
"1","VANEAU CHAMP DE MARS"," 69 avenue de Bosquet 75007 Paris","http://www.vaneau.fr/","0144117575","10","","0","0","0","Paris 7ème 75007 (5)","","","","","","","","","","","","",""
"1","Vaneau LUXEMBOURG"," 13 rue Vavin 75006 Paris","http://www.vaneau.fr/","0144414141","18","1","1","0","0","","","","","","","","","","","","","",""
"1","ACTIA CONSEIL"," 53 rue Blanche 75009 Paris 9ème","http://www.vend-appartement-paris.fr/","0153200180","12","1","0","0","0","Paris 8ème 75008 (3)","Paris 9ème 75009 (5)","Paris 17ème 75017 (9)","Paris 18ème 75018 (8)","","","M N
Michael NGUYEN
Directeur de vente & Associé , Expert immobilier agrée .","C L
Corinne LAMESA
Gérant Fondatrice pôle Gestion","M N
Maxime Nicolas
Assistant gestion","F D
Fréderique Duvivier
Responsable Chasseur immobilier","C L
Cyril LAMESA
Directeur Fondateur","","",""
"1","IMAX PARIS"," 20 rue Caulaincourt 75018 Paris 18ème","http://vd.seloger.com/files/2/3/6/b/236bj7n8gqkmox6sw4yhqxusr4kkfmw5062hi8npc/Bar_me%20honoraires%20paris%20Caulaincourt%20Brochant%20Championnet.pdf","0153092909",,"","0","0","0","","","","","","","","","","","","","",""
"1","URBAN SUCCESS"," 102 RUE DU FAUBOURG SAINT DENIS 75010 Paris","http://media6.ac3-distribution.com/segments/immo/catalog/images/manufacturers_bareme/124261.pdf","0146270707","25","2","2","0","0","+ Plus de détail","Notre site web","twitter","","","","","","","","","","",""
"1","Marc Foujols Immobilier"," 3 rue de Medicis 75006 Paris 6ème","http://vd.seloger.com/files/0/f/0/7/0f07g1gb3v1cn1hiyezau8wc8hcgfl5d66embdi4g/Bareme%20honoraires%20-%20Marc%20Foujols%20Paris%20(1).pdf","0156811140","17","","7","0","0","Paris 5ème 75005 (4)","Paris 6ème 75006 (6)","Paris 7ème 75007 (5)","Paris 14ème 75014 (6)","","","Christophe ROMAND
Consultant","Stéphanie FOUJOLS
Assistante commerciale","","","","","",""
"1","MORISS IMMOBILIER PARIS 9"," 11 RUE MAUBEUGE 75009 Paris","http://www.morissimmobilier.com/","0140161818","8","","16","0","0","+ Plus de détail","Notre site web","","","","","","","","","","","",""
"1","VANEAU Sèvres-Lecourbe"," 58 RUE LECOURBE 75015 PARIS 15EME","http://www.vaneau.fr/","0144497070","9","2","0","2","0","Paris 15ème 75015 (11)","","","","","","","","","","","","",""
"1","VANEAU MARAIS"," 39 rue de Turenne 75003 Paris 3ème","http://www.vaneau.fr/","0142741616","12","7","5","2","0","Paris 1er 75001 (6)","Paris 2ème 75002 (3)","Paris 3ème 75003 (4)","Paris 4ème 75004 (6)","Paris 5ème 75005 (4)","Paris 11ème 75011 (5)","P B
PIERRE BOROWSKY
NEGOCIATEUR","S B
SOFIANE BERRA
DIRECTEUR","C D
Clémence de CALBIAC
NEGOCIATEUR","M T
Maéva TRIPICCHIO
Assistante","","","",""
"1","FWF INVEST"," 51 RUE LAUGIER 75017 PARIS 17EME","http://vd.seloger.com/files/1/p/f/a/1pfaiqihvlgvej44spae4zg64byekqgs2bye6ptkw/Honoraires%20agence%20FWF.pdf","0173545445","4","3","2","0","1","Paris 1er 75001 (6)","Paris 2ème 75002 (3)","Paris 3ème 75003 (4)","Paris 4ème 75004 (6)","Paris 5ème 75005 (4)","Paris 6ème 75006 (6)","Fabrice WALD
Président","Buppa DE RENDINGER
Négociatrice","Christophe MAILLARD
Négociateuer","Eric BAUDIN
Négociateur","Frédéric FLUCHAIRE
Directeur Général","","",""
"1","Stéphane Plaza Immobilier Paris 12 Place Daumesnil"," 3 Pl Felix Eboue 75012 Paris 12ème","http://media10.ac3-distribution.com/segments/immo/catalog/images/manufacturers_bareme/151865.pdf","0143147070","2","1","1","0","0","Paris 11ème 75011 (5)","Paris 12ème 75012 (9)","Paris 13ème 75013 (8)","Paris 19ème 75019 (9)","Paris 20ème 75020 (7)","Charenton-le-Pont 94220 (10)","Chantal GRIESSER
Conseillière en Immobilier","Guillaume CHARRIER
Agent Commercial","Michal KONSEWICZ
Agent commercial","Kévin FERNANDES
Conseiller en Immobilier","Yann PICAT
Directeur","Yann Picat
Directeur","",""
"1","MORISS IMMOBILIER VOLTAIRE"," 37 boulevard Voltaire 75011 Paris 11ème","http://www.morissimmobilier.com/","0148061414","13","","1","0","0","Paris 10ème 75010 (6)","Paris 11ème 75011 (5)","Paris 12ème 75012 (9)","","","","S A
SACHA ABITBOL
DIRECTEUR D'AGENCE","G T
GREG TAIEB
DIRECTEUR D'AGENCE","","","","","",""
"1","SIXTEEN IMMOBILIER"," 1 RUE DE SONTAY place Victor Hugo 75116 PARIS","http://www.actea-conseil.fr/fr/#fees","+33 (0)1 48 56 30 50",,"","8","0","0","Paris 8ème 75008 (7)","Paris 16ème 75016 (8)","Paris 17ème 75017 (9)","","","","Danièle Kosseim
Négociatrice","Shirine Khoury Tabet
Directrice d'agence","","","","","",""
"1","Stéphane plaza Immobilier Paris 3"," 75 RUE DE TURBIGO 75003 PARIS 3EME","http://www.stephaneplazaimmobilier-paris3.com/","01 48 87 55 63","8","","0","0","0","Paris 3ème 75003 (4)","Paris 4ème 75004 (6)","Paris 10ème 75010 (6)","","","","M K
Malvina KIEFFER
Agent commerciale","Damien PILET
Agent commercial","Émilie TRUJAS
Directrice","","","","",""
"1","AGENCE DES ENFANTS ROUGES PLACE DES VOSGES"," 17 PLACE DES VOSGES 75004 PARIS","http://www.agencedesenfantsrouges.com/","0185740101","22","2","0","0","0","+ Plus de détail","Notre site web","","","","","","","","","","","",""
"1","AVL immobilier Laumière"," 118 RUE DE MEAUX 75019 Paris","http://www.avl-immobilier.com/","0142006200","8","14","10","2","2","Paris 10ème 75010 (4)","Paris 11ème 75011 (4)","Paris 13ème 75013 (8)","Paris 18ème 75018 (7)","Paris 19ème 75019 (9)","Paris 20ème 75020 (5)","B C
Benjamin CAUDRON
Responsable d'agence","R F
Rodolphe FINCK
Conseiller Immobilier","A B
Amazigh BELARBI
Conseiller Immobilier","R T
Régis TEFFO
Conseiller Immobilier","","","",""
"1","GARANCE IMMOBILIER"," 226 avenue Daumesnil 75012 Paris","http://www.garance-immo.com/","0153447788","5","2","2","0","0","Paris 11ème 75011 (3)","Paris 12ème 75012 (9)","Charenton-le-Pont 94220 (10)","Saint-Mandé 94160 (9)","Vincennes 94300 (4)","","J M
Julien MEURIOT
Conseiller Immobilier","D M
David MEZI
Conseiller Immobilier","A S
Amaury SCHUSTER
Conseiller Immobilier","S S
Sébastien SOUBIELLE
Conseiller Immobilier","R D
Roland DELESENNE
Conseiller Immobilier","L M
Léa MARINELLO
Conseiller Immobilier","",""
"1","IMMO'LAND"," 259 av Daumesnil 75012 Paris","http://media12.ac3-distribution.com/segments/immo/catalog/images/manufacturers_bareme/155551.pdf","0156950707","11","3","3","0","0","Paris 11ème 75011 (5)","Paris 12ème 75012 (9)","Paris 20ème 75020 (7)","Charenton-le-Pont 94220 (10)","Saint-Mandé 94160 (9)","Vincennes 94300 (4)","G H
Ghislaine HERNANDEZ
Négociatrice Immobilier","G A
Gary AMOYAL
Négociateur Immobilier","Joelle AMOYAL
Directrice","","","","",""
"1","MARC FOUJOLS GROUPE IMMOBILIER"," 15 avenue Paul Doumer 75116 Paris","http://www.marcfoujols.com/nos-honoraires/","0153700000","44","","0","0","0","Paris 16ème 75016 (8)","","","","","","Eva Subrini
Consultante","Nathalie Millereau
Consultante","Lila GIL
Consultante","Cristina PEREIRA
Consultante","Sandra SCOLLNICK
Consultante","Jean Michel FOUJOLS
Responsable commercial","Océane FRANCHINI
Assistante de direction","Paul LEMOINE
Consultant"
"1","SAINT Ferdinand Courcelles"," 107 rue de Courcelles 75017 Paris","http://www.agencessaintferdinand.com/","0143801017","5","6","5","1","0","","","","","","","J C
Jean-Yves CHICHEPORTICHE
Directeur","C E
Cathy ESABAL
Négociatrice Transaction","G B
Guy BISMUTH
Négociateur Transaction","C D
Claire DENOUAL
Négociatrice Transaction","C R
Cindy ROULET
Négociatrice Transaction","M E
Margaux ELBAZ
Négociatrice Transaction","S B
Sylvie BENICHOU
Responsable Gestion Locative","J E
Jennifer EDERY
Négociatrice Location"
"1","LAFORÊT IMMOBILIER SARL BEAULIEU IMMOBILIER"," 49 rue Boulard 75014 Paris","http://www.laforet.com/paris14boulard","0153901515",,"","1","2","0","Paris 6ème 75006 (2)","Paris 14ème 75014 (6)","Malakoff 92240 (11)","Montrouge 92120 (17)","","","Gilbert Chouchana
Directeur","Emmanuelle Dal'Moro
Responsable","Sarah Bellanger
Responsable Location","C G
Camille George
Conseillère en Immobilier","R C
Rémy Chouchana
Responsable Gestion Locative","A D
Alexis Derkaloustian
Conseiller Immobilier","",""
"1","GROUPE STI"," 17 rue Delambre 75014 Paris","http://www.sti-immo.com/","0143354637","1","1","0","1","0","Paris 5ème 75005 (4)","Paris 6ème 75006 (6)","Paris 7ème 75007 (5)","Paris 13ème 75013 (8)","Paris 14ème 75014 (6)","Paris 15ème 75015 (11)","STI Montparnasse
Vente, Achat, Location","STI Daguerre
Vente, Achat, Location","STI Duvernet
Vente, Achat, Location","S P
STI Pernety
Vente, Achat, Location, Gestion","S A
STI Alésia
Vente, Achat","S S
STI Syndic
Vente, Achat","S S
STI Syndic
Syndic de Copropriété","T N
Thierry NOAL
Directeur"
"1","LOFT APP'ART & CO"," 34 rue de l'Echiquier / 16 rue Hauteville 75010 Paris 10ème","http://www.seloger.com/professionnels/agences-immobilieres/paris-10eme-75/agency-63602.htm","0148016751","17","","16","0","0","Paris 1er 75001 (6)","Paris 2ème 75002 (3)","Paris 3ème 75003 (4)","Paris 4ème 75004 (6)","Paris 5ème 75005 (4)","Paris 6ème 75006 (6)","Viet Nam Hoang
Fondateur","Viet Nam M. Hoang
Fondateur","","","","","",""
"1","SELLIER PATRIMOINE"," 11 RUE DES FOSSES ST MARCEL 75005 PARIS 5EME","http://www.sellier-patrimoine.com/","+33 (0)1 42 75 01 11","17","","14","1","0","Paris 1er 75001 (6)","Paris 2ème 75002 (3)","Paris 3ème 75003 (4)","Paris 4ème 75004 (6)","Paris 5ème 75005 (4)","Paris 6ème 75006 (6)","D S
DENIS SELLIER
Directeur General et Expert Immobilier","","","","","","",""
"1","ZOLA IMMOBILIER"," 91 rue du Theatre 75015 Paris","http://www.agence-zola-immo.fr/","0153953130","10","1","0","1","0","Paris 1er 75001 (6)","Paris 2ème 75002 (2)","Paris 3ème 75003 (3)","Paris 4ème 75004 (5)","Paris 5ème 75005 (4)","Paris 6ème 75006 (6)","Jonathan ESCHER
Agent Commercial en immobilier","Gilles HOUDAYER
Directeur","","","","","",""
"1","SAINT FERDINAND PASSY-MUETTE"," 6 Chaussee de la Muette 75016 Paris 16ème","http://www.agencessaintferdinand.com/","0155743600","9","","0","0","0","Paris 16ème 75016 (8)","","","","","","","","","","","","",""
"1","MORISS IMMOBILIER PARIS CENTRE"," 110 rue Reaumur 75002 PARIS","http://www.morissimmobilier.com/","0155800162","20","","16","0","0","Paris 1er 75001 (6)","Paris 2ème 75002 (3)","Paris 3ème 75003 (4)","Paris 4ème 75004 (6)","Paris 9ème 75009 (5)","Paris 10ème 75010 (6)","Mickael Abitbol
Directeur d'agence","Tom Benisti
Responsable d'Agence","","","","","",""
"1","L'ADRESSE Paris 20"," 124 rue de Belleville 75020 Paris 20ème","http://www.ladresse-paris-jourdain.com/","0177367020","16","2","2","0","0","","","","","","","","","","","","","",""
"1","Stéphane Plaza Immobilier Agence Motte Picquet"," 50 avenue de la Motte Piquet 75015 Paris 15ème","http://media10.ac3-distribution.com/segments/immo/catalog/images/manufacturers_bareme/111408.pdf","0140650030","5","","0","0","0","Notre site web","","","","","","","","","","","","",""
"1","LA MAISON DE L IMMOBILIER PARIS"," 112 rue Réaumur 75002 Paris 2ème","http://media8.ac3-distribution.com/segments/immo/catalog/images/manufacturers_bareme/151944.pdf","0140390909","10","2","1","0","0","Paris 1er 75001 (6)","Paris 2ème 75002 (3)","Paris 3ème 75003 (4)","Paris 4ème 75004 (6)","Paris 9ème 75009 (2)","Paris 10ème 75010 (2)","Gurvan DALAISE
Associé-Manager","Carole DALAISE
Conseillère Immobilier","Vanessa SEGUNDO
Agent Commerciale","Anthony PECCHIA
Agent Commercial","A P
Alain PETIT
Gérant","","",""
"1","CENTURY 21 Action Pierre Vaugirard"," 377 bis rue de Vaugirard 75015 Paris","http://www.century21actionpierre.com/","0156085621","8","6","4","5","0","Paris 14ème 75014 (6)","Paris 15ème 75015 (11)","Paris 16ème 75016 (8)","Issy-les-Moulineaux 92130 (8)","","","Anne laure THION
Direction","Johan BOIXEL
Manager","Aurelie LE BIHAN
Assistante commerciale","Flavien PALLIOT
Conseiller en immobilier","Cyril ROQUET
Conseiller en immobilier","Laurent MONTIGNY
Conseiller en immobilier","Jeysson HERNANDEZ
Conseiller en immobilier","Olivier GALLOIS
Conseiller en immobilier"
"1","AGENCE PARIS SEINE CHERCHE MIDI"," 59 rue du Cherche Midi 75006 Paris","http://www.paris-seine-immobilier.com/","0145446600","12","13","6","7","0","Paris 1er 75001 (6)","Paris 2ème 75002 (3)","Paris 3ème 75003 (4)","Paris 4ème 75004 (6)","Paris 5ème 75005 (4)","Paris 6ème 75006 (6)","Jules MAZET
Conseiller / Négociateur Vente","Frédéric JAUBERT
Directeur associé","Michel KESSLER
Directeur associé","Audrey MULLER
Conseillère / Négociatrice Vente","Morgann BERTHE
Conseillère / Négociatrice Vente","Alexandre CURTIL
Conseiller / Négociateur Vente","Emilie PAGIS - BENGUIGUI
Conseillère / Négociatrice Location","Nolwenn CARADEC
Conseillère / Négociatrice Location"
"1","MARNIER SEINE"," 69 rue de Seine 75006 Paris 6ème","http://www.marnier.fr/","0143292827","7","","2","0","0","Paris 5ème 75005 (2)","Paris 6ème 75006 (6)","Paris 7ème 75007 (2)","","","","A F
Anne Marie FARDEAU
agent Commercial","M R
Marie-Pierre ROCCARD-LORENDEAU
Agent Commercial","S K
Sophie KLAP
agent Commercial","D D
Dominique DISDERO
Negociatrice","N J
nicolas joder
negociateur","","",""
"1","LAFORÊT IMMOBILIER - BDO IMMOBILIER"," 114 rue de Turenne 75003 Paris","http://www.laforet.com/paris3-marais","0144541111",,"","0","1","0","","","","","","","Benjamin Azria
Directeur des agences LAFORET PARIS MARAIS - Gérant","Ambroise Cante
Conseiller immobilier VENTE ACHAT","Théo Adda
Conseiller immobilier GESTION LOCATION","Elodie Claude
Conseiller immobilier VENTE ACHAT","Mathieu Midol
Conseiller immobilier VENTE ACHAT","Laetitia Raoult
Conseiller immobilier VENTE ACHAT","Marie-Eva Reynaud
Conseiller immobilier GESTION LOCATION",""
"1","DAVID IMMOBILIER"," 71 bd de Courcelles 75008 Paris","http://www.davidimmo.com/","0147630808","10","2","1","1","0","+ Plus de détail","Notre site web","youtube","twitter","","","","","","","","","",""
"1","ZENATTI IMMOBILIER"," 27 rue Clauzel 75009 Paris","http://www.zenatti-immobilier.com/","0142850506","1","1","1","0","0","","","","","","","P Z
PIERRE ZENATTI
DIRECTEUR","F D
FREDERIC DE CASSON
CONSEILLER VENTE","V Z
VANESSA ZENATTI
CONSEILLERE VENTE","F R
FRANCOIS ROUSSELLE
MANAGER","S G
SYLVIA GIARRATANA
NEGOCIATRICE","E Z
ELISABETH ZENATTI
DIRECTRICE VENTE ET GESTION","S F
STEPHANIE FABRE
ASSISTANTE GESTION",""
"1","VOUILLÉ IMMOBILIER"," 37 rue de Vouillé 75015 Paris 15ème","http://media12.ac3-distribution.com/segments/immo/catalog/images/manufacturers_bareme/154896.pdf","0145316144","6","11","0","11","0","Paris 15ème 75015 (5)","","","","","","F D
Faustine DEBENEST
Conseillère en transactions immobilières","J C
Joëlle COUPON
Responsable du service gestion / location","F V
Françoise VOYER
Conseillère Location Gestion","A M
Anna MAXIMOFF
Assistante Gestion Locative","Bernard SCIUCCATI
Gérant","","",""
"1","SULLIVAN AGENCY"," 18 rue Benjamin Franklin 75116 Paris","http://www.sullivanagency.fr/","0155748100","3","2","2","0","0","Paris 6ème 75006 (6)","Paris 8ème 75008 (7)","Paris 16ème 75016 (1)","Paris 17ème 75017 (9)","Neuilly-sur-Seine 92200 (5)","","Delphine Szames
directrice d'agence","L D
LISA DUKAN
DIRECTRICE","F D
francoise DUKAN
Gerante","E E
Estelle ELBAZ
COLLABORATRICE EN ALTERNANCE","","","",""
"1","VANEAU 14eme"," 38 rue Boulard 75014 Paris","http://www.vaneau.fr/","0145450185","2","","16","0","0","+ Plus de détail","Notre site web","","","","","","","","","","","",""
"1","VANEAU Bac - Saint-Germain"," 25 rue Vaneau 75007 Paris","http://www.vaneau.fr/","0145554663","18","3","3","0","0","","","","","","","","","","","","","",""
"1","VANEAU CHAMP DE MARS"," 69 avenue de Bosquet 75007 Paris","http://www.vaneau.fr/","0144117575","10","","0","0","0","Paris 7ème 75007 (5)","","","","","","","","","","","","",""
"1","Vaneau LUXEMBOURG"," 13 rue Vavin 75006 Paris","http://www.vaneau.fr/","0144414141","18","1","1","0","0","","","","","","","","","","","","","",""
"1","ACTIA CONSEIL"," 53 rue Blanche 75009 Paris 9ème","http://www.vend-appartement-paris.fr/","0153200180","12","1","0","0","0","Paris 8ème 75008 (3)","Paris 9ème 75009 (5)","Paris 17ème 75017 (9)","Paris 18ème 75018 (8)","","","M N
Michael NGUYEN
Directeur de vente & Associé , Expert immobilier agrée .","C L
Corinne LAMESA
Gérant Fondatrice pôle Gestion","M N
Maxime Nicolas
Assistant gestion","F D
Fréderique Duvivier
Responsable Chasseur immobilier","C L
Cyril LAMESA
Directeur Fondateur","","",""
"1","IMAX PARIS"," 20 rue Caulaincourt 75018 Paris 18ème","http://vd.seloger.com/files/2/3/6/b/236bj7n8gqkmox6sw4yhqxusr4kkfmw5062hi8npc/Bar_me%20honoraires%20paris%20Caulaincourt%20Brochant%20Championnet.pdf","0153092909",,"","0","0","0","","","","","","","","","","","","","",""
"1","URBAN SUCCESS"," 102 RUE DU FAUBOURG SAINT DENIS 75010 Paris","http://media6.ac3-distribution.com/segments/immo/catalog/images/manufacturers_bareme/124261.pdf","0146270707","25","2","2","0","0","+ Plus de détail","Notre site web","twitter","","","","","","","","","","",""
"1","Marc Foujols Immobilier"," 3 rue de Medicis 75006 Paris 6ème","http://vd.seloger.com/files/0/f/0/7/0f07g1gb3v1cn1hiyezau8wc8hcgfl5d66embdi4g/Bareme%20honoraires%20-%20Marc%20Foujols%20Paris%20(1).pdf","0156811140","17","","7","0","0","Paris 5ème 75005 (4)","Paris 6ème 75006 (6)","Paris 7ème 75007 (5)","Paris 14ème 75014 (6)","","","Christophe ROMAND
Consultant","Stéphanie FOUJOLS
Assistante commerciale","","","","","",""
"1","MORISS IMMOBILIER PARIS 9"," 11 RUE MAUBEUGE 75009 Paris","http://www.morissimmobilier.com/","0140161818","8","","16","0","0","+ Plus de détail","Notre site web","","","","","","","","","","","",""
"1","VANEAU Sèvres-Lecourbe"," 58 RUE LECOURBE 75015 PARIS 15EME","http://www.vaneau.fr/","0144497070","9","2","0","2","0","Paris 15ème 75015 (11)","","","","","","","","","","","","",""
"1","VANEAU MARAIS"," 39 rue de Turenne 75003 Paris 3ème","http://www.vaneau.fr/","0142741616","12","7","5","2","0","Paris 1er 75001 (6)","Paris 2ème 75002 (3)","Paris 3ème 75003 (4)","Paris 4ème 75004 (6)","Paris 5ème 75005 (4)","Paris 11ème 75011 (5)","M T
Maéva TRIPICCHIO
Assistante","P B
PIERRE BOROWSKY
NEGOCIATEUR","S B
SOFIANE BERRA
DIRECTEUR","C D
Clémence de CALBIAC
NEGOCIATEUR","","","",""
"1","FWF INVEST"," 51 RUE LAUGIER 75017 PARIS 17EME","http://vd.seloger.com/files/1/p/f/a/1pfaiqihvlgvej44spae4zg64byekqgs2bye6ptkw/Honoraires%20agence%20FWF.pdf","0173545445","4","3","2","0","1","Paris 1er 75001 (6)","Paris 2ème 75002 (3)","Paris 3ème 75003 (4)","Paris 4ème 75004 (6)","Paris 5ème 75005 (4)","Paris 6ème 75006 (6)","Fabrice WALD
Président","Buppa DE RENDINGER
Négociatrice","Christophe MAILLARD
Négociateuer","Eric BAUDIN
Négociateur","Frédéric FLUCHAIRE
Directeur Général","","",""
"1","Stéphane Plaza Immobilier Paris 12 Place Daumesnil"," 3 Pl Felix Eboue 75012 Paris 12ème","http://media10.ac3-distribution.com/segments/immo/catalog/images/manufacturers_bareme/151865.pdf","0143147070","2","1","1","0","0","Paris 11ème 75011 (5)","Paris 12ème 75012 (9)","Paris 13ème 75013 (8)","Paris 19ème 75019 (9)","Paris 20ème 75020 (7)","Charenton-le-Pont 94220 (10)","Chantal GRIESSER
Conseillière en Immobilier","Guillaume CHARRIER
Agent Commercial","Michal KONSEWICZ
Agent commercial","Kévin FERNANDES
Conseiller en Immobilier","Yann PICAT
Directeur","Yann Picat
Directeur","",""
"1","MORISS IMMOBILIER VOLTAIRE"," 37 boulevard Voltaire 75011 Paris 11ème","http://www.morissimmobilier.com/","0148061414","13","","1","0","0","Paris 10ème 75010 (6)","Paris 11ème 75011 (5)","Paris 12ème 75012 (9)","","","","S A
SACHA ABITBOL
DIRECTEUR D'AGENCE","G T
GREG TAIEB
DIRECTEUR D'AGENCE","","","","","",""
"1","SIXTEEN IMMOBILIER"," 1 RUE DE SONTAY place Victor Hugo 75116 PARIS","http://www.actea-conseil.fr/fr/#fees","+33 (0)1 48 56 30 50",,"","8","0","0","Paris 8ème 75008 (7)","Paris 16ème 75016 (8)","Paris 17ème 75017 (9)","","","","Danièle Kosseim
Négociatrice","Shirine Khoury Tabet
Directrice d'agence","","","","","",""
"1","Stéphane plaza Immobilier Paris 3"," 75 RUE DE TURBIGO 75003 PARIS 3EME","http://www.stephaneplazaimmobilier-paris3.com/","01 48 87 55 63","8","","0","0","0","Paris 3ème 75003 (4)","Paris 4ème 75004 (6)","Paris 10ème 75010 (6)","","","","M K
Malvina KIEFFER
Agent commerciale","Damien PILET
Agent commercial","Émilie TRUJAS
Directrice","","","","",""
"1","AGENCE DES ENFANTS ROUGES PLACE DES VOSGES"," 17 PLACE DES VOSGES 75004 PARIS","http://www.agencedesenfantsrouges.com/","0185740101","22","2","0","0","0","+ Plus de détail","Notre site web","","","","","","","","","","","",""
